1295795025.605541 	 00:11:21:61:84:a0	 -64
1295795025.856947 	 00:11:21:61:84:a0	 -64
1295795026.108353 	 00:11:21:61:84:a0	 -66
1295795026.359690 	 00:11:21:61:84:a0	 -66
1295795026.613291 	 00:11:21:61:84:a0	 -59
1295795026.864941 	 00:11:21:61:84:a0	 -59
1295795027.118638 	 00:11:21:61:84:a0	 -59
1295795027.370263 	 00:11:21:61:84:a0	 -59
1295795027.623967 	 00:11:21:61:84:a0	 -59
1295795027.875775 	 00:11:21:61:84:a0	 -59
1295795028.129879 	 00:11:21:61:84:a0	 -58
1295795028.381751 	 00:11:21:61:84:a0	 -58
1295795028.635765 	 00:11:21:61:84:a0	 -58
1295795028.887682 	 00:11:21:61:84:a0	 -58
1295795029.139785 	 00:11:21:61:84:a0	 -63
1295795029.391844 	 00:11:21:61:84:a0	 -63
1295795029.646099 	 00:11:21:61:84:a0	 -58
1295795029.898366 	 00:11:21:61:84:a0	 -58
1295795030.152809 	 00:11:21:61:84:a0	 -59
1295795030.405270 	 00:11:21:61:84:a0	 -59
1295795030.659778 	 00:11:21:61:84:a0	 -59
1295795030.912071 	 00:11:21:61:84:a0	 -59
1295795031.166550 	 00:11:21:61:84:a0	 -59
1295795031.419064 	 00:11:21:61:84:a0	 -59
1295795031.671473 	 00:11:21:61:84:a0	 -60
1295795031.923954 	 00:11:21:61:84:a0	 -60
1295795032.178599 	 00:11:21:61:84:a0	 -58
1295795032.431291 	 00:11:21:61:84:a0	 -58
1295795032.686206 	 00:11:21:61:84:a0	 -63
1295795032.938855 	 00:11:21:61:84:a0	 -63
1295795033.193819 	 00:11:21:61:84:a0	 -59
1295795033.446669 	 00:11:21:61:84:a0	 -59
1295795033.701789 	 00:11:21:61:84:a0	 -58
1295795033.954732 	 00:11:21:61:84:a0	 -58
1295795034.209889 	 00:11:21:61:84:a0	 -67
1295795034.462749 	 00:11:21:61:84:a0	 -67
1295795034.715754 	 00:11:21:61:84:a0	 -59
1295795034.968848 	 00:11:21:61:84:a0	 -59
1295795035.224076 	 00:11:21:61:84:a0	 -58
1295795035.477214 	 00:11:21:61:84:a0	 -58
1295795035.732506 	 00:11:21:61:84:a0	 -65
1295795035.985733 	 00:11:21:61:84:a0	 -65
1295795036.241020 	 00:11:21:61:84:a0	 -69
1295795036.494272 	 00:11:21:61:84:a0	 -69
1295795036.749811 	 00:11:21:61:84:a0	 -69
1295795037.006249 	 00:11:21:61:84:a0	 -69
1295795037.265541 	 00:11:21:61:84:a0	 -64
1295795037.518894 	 00:11:21:61:84:a0	 -64
1295795037.774457 	 00:11:21:61:84:a0	 -60
1295795038.027977 	 00:11:21:61:84:a0	 -60
1295795038.283698 	 00:11:21:61:84:a0	 -63
1295795038.537529 	 00:11:21:61:84:a0	 -63
1295795038.793422 	 00:11:21:61:84:a0	 -65
1295795039.047289 	 00:11:21:61:84:a0	 -65
1295795039.303057 	 00:11:21:61:84:a0	 -59
1295795039.556874 	 00:11:21:61:84:a0	 -59
1295795039.812863 	 00:11:21:61:84:a0	 -58
1295795040.066526 	 00:11:21:61:84:a0	 -58
1295795040.323703 	 00:11:21:61:84:a0	 -64
1295795040.577729 	 00:11:21:61:84:a0	 -64
1295795040.835896 	 00:11:21:61:84:a0	 -58
1295795041.090050 	 00:11:21:61:84:a0	 -58
1295795041.348019 	 00:11:21:61:84:a0	 -58
1295795041.602147 	 00:11:21:61:84:a0	 -58
1295795041.859887 	 00:11:21:61:84:a0	 -65
1295795042.114291 	 00:11:21:61:84:a0	 -65
1295795042.372165 	 00:11:21:61:84:a0	 -58
1295795042.626473 	 00:11:21:61:84:a0	 -58
1295795042.884330 	 00:11:21:61:84:a0	 -59
1295795043.141302 	 00:11:21:61:84:a0	 -59
1295795043.397827 	 00:11:21:61:84:a0	 -65
1295795043.654371 	 00:11:21:61:84:a0	 -65
1295795043.912258 	 00:11:21:61:84:a0	 -65
1295795044.169198 	 00:11:21:61:84:a0	 -65
1295795044.428162 	 00:11:21:61:84:a0	 -61
1295795044.684953 	 00:11:21:61:84:a0	 -61
1295795044.943966 	 00:11:21:61:84:a0	 -59
1295795045.200991 	 00:11:21:61:84:a0	 -59
1295795045.459992 	 00:11:21:61:84:a0	 -68
1295795045.717105 	 00:11:21:61:84:a0	 -68
1295795045.976264 	 00:11:21:61:84:a0	 -59
1295795046.233351 	 00:11:21:61:84:a0	 -59
1295795046.490508 	 00:11:21:61:84:a0	 -65
1295795046.746599 	 00:11:21:61:84:a0	 -65
1295795047.004522 	 00:11:21:61:84:a0	 -60
1295795047.261687 	 00:11:21:61:84:a0	 -60
1295795047.520604 	 00:11:21:61:84:a0	 -68
1295795047.777631 	 00:11:21:61:84:a0	 -68
1295795048.036837 	 00:11:21:61:84:a0	 -62
1295795048.293992 	 00:11:21:61:84:a0	 -62
1295795048.552869 	 00:11:21:61:84:a0	 -64
1295795048.810169 	 00:11:21:61:84:a0	 -64
1295795049.068632 	 00:11:21:61:84:a0	 -59
1295795049.325856 	 00:11:21:61:84:a0	 -59
1295795049.584953 	 00:11:21:61:84:a0	 -68
1295795049.840378 	 00:11:21:61:84:a0	 -68
1295795050.099786 	 00:11:21:61:84:a0	 -65
1295795050.378780 	 00:11:21:61:84:a0	 -65
1295795050.637020 	 00:11:21:61:84:a0	 -60
1295795050.894362 	 00:11:21:61:84:a0	 -60
1295795051.153045 	 00:11:21:61:84:a0	 -66
1295795051.410451 	 00:11:21:61:84:a0	 -66
1295795051.668947 	 00:11:21:61:84:a0	 -60
1295795051.926419 	 00:11:21:61:84:a0	 -60
1295795052.185152 	 00:11:21:61:84:a0	 -64
1295795052.442639 	 00:11:21:61:84:a0	 -64
1295795052.701033 	 00:11:21:61:84:a0	 -60
1295795052.958615 	 00:11:21:61:84:a0	 -60
1295795053.217874 	 00:11:21:61:84:a0	 -66
1295795053.475070 	 00:11:21:61:84:a0	 -66
1295795053.746634 	 00:11:21:61:84:a0	 -65
1295795054.006269 	 00:11:21:61:84:a0	 -65
1295795054.268497 	 00:11:21:61:84:a0	 -65
1295795054.526410 	 00:11:21:61:84:a0	 -65
1295795054.785278 	 00:11:21:61:84:a0	 -60
1295795055.041318 	 00:11:21:61:84:a0	 -60
1295795055.299626 	 00:11:21:61:84:a0	 -65
1295795055.579189 	 00:11:21:61:84:a0	 -65
1295795055.851190 	 00:11:21:61:84:a0	 -59
1295795056.133243 	 00:11:21:61:84:a0	 -59
1295795056.391820 	 00:11:21:61:84:a0	 -59
1295795056.671802 	 00:11:21:61:84:a0	 -59
1295795056.950524 	 00:11:21:61:84:a0	 -60
1295795057.231483 	 00:11:21:61:84:a0	 -60
1295795057.513761 	 00:11:21:61:84:a0	 -66
1295795057.795534 	 00:11:21:61:84:a0	 -66
1295795058.077939 	 00:11:21:61:84:a0	 -67
1295795058.359954 	 00:11:21:61:84:a0	 -67
1295795058.630915 	 00:11:21:61:84:a0	 -60
1295795058.911962 	 00:11:21:61:84:a0	 -60
1295795059.182742 	 00:11:21:61:84:a0	 -70
1295795059.463839 	 00:11:21:61:84:a0	 -70
1295795059.746501 	 00:11:21:61:84:a0	 -60
1295795060.027784 	 00:11:21:61:84:a0	 -60
1295795060.312765 	 00:11:21:61:84:a0	 -60
1295795060.581534 	 00:11:21:61:84:a0	 -60
1295795060.856053 	 00:11:21:61:84:a0	 -60
1295795061.125078 	 00:11:21:61:84:a0	 -60
1295795061.395995 	 00:11:21:61:84:a0	 -67
1295795061.676619 	 00:11:21:61:84:a0	 -67
1295795061.947489 	 00:11:21:61:84:a0	 -59
1295795062.242976 	 00:11:21:61:84:a0	 -68
1295795062.514298 	 00:11:21:61:84:a0	 -68
1295795062.788283 	 00:11:21:61:84:a0	 -60
1295795063.057073 	 00:11:21:61:84:a0	 -60
1295795063.328150 	 00:11:21:61:84:a0	 -59
1295795063.596960 	 00:11:21:61:84:a0	 -59
1295795063.867926 	 00:11:21:61:84:a0	 -65
1295795064.137109 	 00:11:21:61:84:a0	 -65
1295795064.408308 	 00:11:21:61:84:a0	 -60
1295795064.677174 	 00:11:21:61:84:a0	 -60
1295795064.947073 	 00:11:21:61:84:a0	 -59
1295795065.226608 	 00:11:21:61:84:a0	 -59
1295795065.500347 	 00:11:21:61:84:a0	 -68
1295795065.769418 	 00:11:21:61:84:a0	 -68
1295795066.044581 	 00:11:21:61:84:a0	 -68
1295795066.314059 	 00:11:21:61:84:a0	 -68
1295795066.588610 	 00:11:21:61:84:a0	 -60
1295795066.857926 	 00:11:21:61:84:a0	 -60
1295795067.132487 	 00:11:21:61:84:a0	 -60
1295795067.401765 	 00:11:21:61:84:a0	 -60
1295795067.676645 	 00:11:21:61:84:a0	 -60
1295795067.946086 	 00:11:21:61:84:a0	 -60
1295795068.228553 	 00:11:21:61:84:a0	 -65
1295795068.497982 	 00:11:21:61:84:a0	 -65
1295795068.772591 	 00:11:21:61:84:a0	 -68
1295795069.042119 	 00:11:21:61:84:a0	 -68
1295795069.316775 	 00:11:21:61:84:a0	 -65
1295795069.586176 	 00:11:21:61:84:a0	 -65
1295795069.860803 	 00:11:21:61:84:a0	 -60
1295795070.130293 	 00:11:21:61:84:a0	 -60
1295795070.404679 	 00:11:21:61:84:a0	 -60
1295795070.674017 	 00:11:21:61:84:a0	 -60
1295795070.948829 	 00:11:21:61:84:a0	 -60
1295795071.220632 	 00:11:21:61:84:a0	 -60
1295795071.492177 	 00:11:21:61:84:a0	 -59
1295795071.761661 	 00:11:21:61:84:a0	 -59
1295795072.036485 	 00:11:21:61:84:a0	 -59
1295795072.309981 	 00:11:21:61:84:a0	 -59
1295795072.584873 	 00:11:21:61:84:a0	 -60
1295795072.854931 	 00:11:21:61:84:a0	 -60
1295795073.133470 	 00:11:21:61:84:a0	 -68
1295795073.413185 	 00:11:21:61:84:a0	 -68
1295795073.689239 	 00:11:21:61:84:a0	 -59
1295795073.965206 	 00:11:21:61:84:a0	 -59
1295795074.247848 	 00:11:21:61:84:a0	 -65
1295795074.529827 	 00:11:21:61:84:a0	 -65
1295795074.817968 	 00:11:21:61:84:a0	 -59
1295795075.106175 	 00:11:21:61:84:a0	 -59
1295795075.394134 	 00:11:21:61:84:a0	 -59
1295795075.681948 	 00:11:21:61:84:a0	 -59
1295795075.970201 	 00:11:21:61:84:a0	 -59
1295795076.267475 	 00:11:21:61:84:a0	 -66
1295795076.562014 	 00:11:21:61:84:a0	 -59
1295795076.848968 	 00:11:21:61:84:a0	 -59
1295795077.134502 	 00:11:21:61:84:a0	 -59
1295795077.422547 	 00:11:21:61:84:a0	 -65
1295795077.710399 	 00:11:21:61:84:a0	 -65
1295795077.998540 	 00:11:21:61:84:a0	 -62
1295795078.287333 	 00:11:21:61:84:a0	 -58
1295795078.575756 	 00:11:21:61:84:a0	 -59
1295795078.864625 	 00:11:21:61:84:a0	 -59
1295795079.145168 	 00:11:21:61:84:a0	 -63
1295795079.425164 	 00:11:21:61:84:a0	 -63
1295795079.708422 	 00:11:21:61:84:a0	 -59
1295795079.987420 	 00:11:21:61:84:a0	 -59
1295795080.281547 	 00:11:21:61:84:a0	 -58
1295795080.568499 	 00:11:21:61:84:a0	 -58
1295795080.869843 	 00:11:21:61:84:a0	 -59
1295795081.156739 	 00:11:21:61:84:a0	 -59
1295795081.437078 	 00:11:21:61:84:a0	 -59
1295795081.722600 	 00:11:21:61:84:a0	 -59
1295795082.004931 	 00:11:21:61:84:a0	 -58
1295795082.281804 	 00:11:21:61:84:a0	 -58
1295795082.564710 	 00:11:21:61:84:a0	 -65
1295795082.843776 	 00:11:21:61:84:a0	 -65
1295795083.137288 	 00:11:21:61:84:a0	 -68
1295795083.418884 	 00:11:21:61:84:a0	 -68
1295795083.697890 	 00:11:21:61:84:a0	 -59
1295795083.978964 	 00:11:21:61:84:a0	 -59
1295795084.266569 	 00:11:21:61:84:a0	 -59
1295795084.547291 	 00:11:21:61:84:a0	 -59
1295795084.841648 	 00:11:21:61:84:a0	 -59
1295795085.123188 	 00:11:21:61:84:a0	 -59
1295795085.408752 	 00:11:21:61:84:a0	 -59
1295795085.687984 	 00:11:21:61:84:a0	 -59
1295795085.966632 	 00:11:21:61:84:a0	 -59
1295795025.605500 	 00:11:21:61:84:a0	 -64
1295795025.856911 	 00:11:21:61:84:a0	 -64
1295795026.108319 	 00:11:21:61:84:a0	 -64
1295795026.359658 	 00:11:21:61:84:a0	 -64
1295795026.613256 	 00:11:21:61:84:a0	 -59
1295795026.864908 	 00:11:21:61:84:a0	 -59
1295795027.118606 	 00:11:21:61:84:a0	 -59
1295795027.370230 	 00:11:21:61:84:a0	 -59
1295795027.623932 	 00:11:21:61:84:a0	 -59
1295795027.875744 	 00:11:21:61:84:a0	 -59
1295795028.129846 	 00:11:21:61:84:a0	 -59
1295795028.381697 	 00:11:21:61:84:a0	 -59
1295795028.635732 	 00:11:21:61:84:a0	 -59
1295795028.887650 	 00:11:21:61:84:a0	 -59
1295795029.139753 	 00:11:21:61:84:a0	 -62
1295795029.391812 	 00:11:21:61:84:a0	 -62
1295795029.646062 	 00:11:21:61:84:a0	 -58
1295795029.898334 	 00:11:21:61:84:a0	 -58
1295795030.152777 	 00:11:21:61:84:a0	 -58
1295795030.405238 	 00:11:21:61:84:a0	 -58
1295795030.659745 	 00:11:21:61:84:a0	 -59
1295795030.912039 	 00:11:21:61:84:a0	 -59
1295795031.166518 	 00:11:21:61:84:a0	 -60
1295795031.419031 	 00:11:21:61:84:a0	 -60
1295795031.671441 	 00:11:21:61:84:a0	 -60
1295795031.923921 	 00:11:21:61:84:a0	 -60
1295795032.178567 	 00:11:21:61:84:a0	 -59
1295795032.431259 	 00:11:21:61:84:a0	 -59
1295795032.686174 	 00:11:21:61:84:a0	 -62
1295795032.938823 	 00:11:21:61:84:a0	 -62
1295795033.193787 	 00:11:21:61:84:a0	 -66
1295795033.446636 	 00:11:21:61:84:a0	 -66
1295795033.701752 	 00:11:21:61:84:a0	 -58
1295795033.954700 	 00:11:21:61:84:a0	 -58
1295795034.209858 	 00:11:21:61:84:a0	 -68
1295795034.462717 	 00:11:21:61:84:a0	 -68
1295795034.715722 	 00:11:21:61:84:a0	 -59
1295795034.968816 	 00:11:21:61:84:a0	 -59
1295795035.224043 	 00:11:21:61:84:a0	 -60
1295795035.477181 	 00:11:21:61:84:a0	 -60
1295795035.732473 	 00:11:21:61:84:a0	 -65
1295795035.985681 	 00:11:21:61:84:a0	 -65
1295795036.240987 	 00:11:21:61:84:a0	 -65
1295795036.494240 	 00:11:21:61:84:a0	 -65
1295795036.749780 	 00:11:21:61:84:a0	 -60
1295795037.006217 	 00:11:21:61:84:a0	 -60
1295795037.265508 	 00:11:21:61:84:a0	 -59
1295795037.518861 	 00:11:21:61:84:a0	 -59
1295795037.774424 	 00:11:21:61:84:a0	 -59
1295795038.027946 	 00:11:21:61:84:a0	 -59
1295795038.283666 	 00:11:21:61:84:a0	 -62
1295795038.537497 	 00:11:21:61:84:a0	 -62
1295795038.793389 	 00:11:21:61:84:a0	 -62
1295795039.047256 	 00:11:21:61:84:a0	 -62
1295795039.303024 	 00:11:21:61:84:a0	 -58
1295795039.556842 	 00:11:21:61:84:a0	 -58
1295795039.812830 	 00:11:21:61:84:a0	 -58
1295795040.066506 	 00:11:21:61:84:a0	 -58
1295795040.323670 	 00:11:21:61:84:a0	 -64
1295795040.577666 	 00:11:21:61:84:a0	 -64
1295795040.835863 	 00:11:21:61:84:a0	 -58
1295795041.090018 	 00:11:21:61:84:a0	 -58
1295795041.347987 	 00:11:21:61:84:a0	 -59
1295795041.602115 	 00:11:21:61:84:a0	 -59
1295795041.859850 	 00:11:21:61:84:a0	 -64
1295795042.114258 	 00:11:21:61:84:a0	 -64
1295795042.372133 	 00:11:21:61:84:a0	 -59
1295795042.626440 	 00:11:21:61:84:a0	 -59
1295795042.884297 	 00:11:21:61:84:a0	 -64
1295795043.141269 	 00:11:21:61:84:a0	 -64
1295795043.397795 	 00:11:21:61:84:a0	 -64
1295795043.654339 	 00:11:21:61:84:a0	 -64
1295795043.912226 	 00:11:21:61:84:a0	 -67
1295795044.169166 	 00:11:21:61:84:a0	 -67
1295795044.428129 	 00:11:21:61:84:a0	 -60
1295795044.684921 	 00:11:21:61:84:a0	 -60
1295795044.943933 	 00:11:21:61:84:a0	 -60
1295795045.200958 	 00:11:21:61:84:a0	 -60
1295795045.459960 	 00:11:21:61:84:a0	 -65
1295795045.717072 	 00:11:21:61:84:a0	 -65
1295795045.976232 	 00:11:21:61:84:a0	 -60
1295795046.233320 	 00:11:21:61:84:a0	 -60
1295795046.490475 	 00:11:21:61:84:a0	 -64
1295795046.746567 	 00:11:21:61:84:a0	 -64
1295795047.004489 	 00:11:21:61:84:a0	 -59
1295795047.261655 	 00:11:21:61:84:a0	 -59
1295795047.520572 	 00:11:21:61:84:a0	 -68
1295795047.777598 	 00:11:21:61:84:a0	 -68
1295795048.036804 	 00:11:21:61:84:a0	 -66
1295795048.293961 	 00:11:21:61:84:a0	 -66
1295795048.552837 	 00:11:21:61:84:a0	 -64
1295795048.810137 	 00:11:21:61:84:a0	 -64
1295795049.068600 	 00:11:21:61:84:a0	 -60
1295795049.325824 	 00:11:21:61:84:a0	 -60
1295795049.584920 	 00:11:21:61:84:a0	 -65
1295795049.840345 	 00:11:21:61:84:a0	 -65
1295795050.099753 	 00:11:21:61:84:a0	 -65
1295795050.378748 	 00:11:21:61:84:a0	 -65
1295795050.636987 	 00:11:21:61:84:a0	 -60
1295795050.894329 	 00:11:21:61:84:a0	 -60
1295795051.153012 	 00:11:21:61:84:a0	 -68
1295795051.410418 	 00:11:21:61:84:a0	 -68
1295795051.668915 	 00:11:21:61:84:a0	 -61
1295795051.926387 	 00:11:21:61:84:a0	 -61
1295795052.185119 	 00:11:21:61:84:a0	 -62
1295795052.442607 	 00:11:21:61:84:a0	 -62
1295795052.701000 	 00:11:21:61:84:a0	 -60
1295795052.958583 	 00:11:21:61:84:a0	 -60
1295795053.217829 	 00:11:21:61:84:a0	 -59
1295795053.475037 	 00:11:21:61:84:a0	 -59
1295795053.746602 	 00:11:21:61:84:a0	 -64
1295795054.006237 	 00:11:21:61:84:a0	 -64
1295795054.268464 	 00:11:21:61:84:a0	 -67
1295795054.526377 	 00:11:21:61:84:a0	 -67
1295795054.785245 	 00:11:21:61:84:a0	 -60
1295795055.041285 	 00:11:21:61:84:a0	 -60
1295795055.299594 	 00:11:21:61:84:a0	 -65
1295795055.579156 	 00:11:21:61:84:a0	 -65
1295795055.851156 	 00:11:21:61:84:a0	 -60
1295795056.133210 	 00:11:21:61:84:a0	 -60
1295795056.391787 	 00:11:21:61:84:a0	 -60
1295795056.671770 	 00:11:21:61:84:a0	 -60
1295795056.950492 	 00:11:21:61:84:a0	 -60
1295795057.231450 	 00:11:21:61:84:a0	 -60
1295795057.513726 	 00:11:21:61:84:a0	 -60
1295795057.795501 	 00:11:21:61:84:a0	 -60
1295795058.077907 	 00:11:21:61:84:a0	 -65
1295795058.359921 	 00:11:21:61:84:a0	 -65
1295795058.630871 	 00:11:21:61:84:a0	 -60
1295795058.911929 	 00:11:21:61:84:a0	 -60
1295795059.182710 	 00:11:21:61:84:a0	 -69
1295795059.463806 	 00:11:21:61:84:a0	 -69
1295795059.746468 	 00:11:21:61:84:a0	 -69
1295795060.027751 	 00:11:21:61:84:a0	 -69
1295795060.312732 	 00:11:21:61:84:a0	 -60
1295795060.581500 	 00:11:21:61:84:a0	 -60
1295795060.856021 	 00:11:21:61:84:a0	 -62
1295795061.125045 	 00:11:21:61:84:a0	 -62
1295795061.395962 	 00:11:21:61:84:a0	 -65
1295795061.676586 	 00:11:21:61:84:a0	 -65
1295795061.947455 	 00:11:21:61:84:a0	 -60
1295795062.242943 	 00:11:21:61:84:a0	 -68
1295795062.514265 	 00:11:21:61:84:a0	 -68
1295795062.788250 	 00:11:21:61:84:a0	 -60
1295795063.057057 	 00:11:21:61:84:a0	 -60
1295795063.328117 	 00:11:21:61:84:a0	 -59
1295795063.596927 	 00:11:21:61:84:a0	 -59
1295795063.867892 	 00:11:21:61:84:a0	 -65
1295795064.137075 	 00:11:21:61:84:a0	 -65
1295795064.408274 	 00:11:21:61:84:a0	 -60
1295795064.677141 	 00:11:21:61:84:a0	 -60
1295795064.947040 	 00:11:21:61:84:a0	 -59
1295795065.226574 	 00:11:21:61:84:a0	 -59
1295795065.500314 	 00:11:21:61:84:a0	 -68
1295795065.769385 	 00:11:21:61:84:a0	 -68
1295795066.044548 	 00:11:21:61:84:a0	 -66
1295795066.314026 	 00:11:21:61:84:a0	 -66
1295795066.588578 	 00:11:21:61:84:a0	 -60
1295795066.857893 	 00:11:21:61:84:a0	 -60
1295795067.132455 	 00:11:21:61:84:a0	 -60
1295795067.401730 	 00:11:21:61:84:a0	 -60
1295795067.676612 	 00:11:21:61:84:a0	 -60
1295795067.946053 	 00:11:21:61:84:a0	 -60
1295795068.228521 	 00:11:21:61:84:a0	 -66
1295795068.497949 	 00:11:21:61:84:a0	 -66
1295795068.772557 	 00:11:21:61:84:a0	 -68
1295795069.042086 	 00:11:21:61:84:a0	 -68
1295795069.316742 	 00:11:21:61:84:a0	 -60
1295795069.586143 	 00:11:21:61:84:a0	 -60
1295795069.860771 	 00:11:21:61:84:a0	 -61
1295795070.130260 	 00:11:21:61:84:a0	 -61
1295795070.404646 	 00:11:21:61:84:a0	 -65
1295795070.673985 	 00:11:21:61:84:a0	 -65
1295795070.948795 	 00:11:21:61:84:a0	 -59
1295795071.220600 	 00:11:21:61:84:a0	 -59
1295795071.492143 	 00:11:21:61:84:a0	 -59
1295795071.761628 	 00:11:21:61:84:a0	 -59
1295795072.036469 	 00:11:21:61:84:a0	 -59
1295795072.309949 	 00:11:21:61:84:a0	 -59
1295795072.584840 	 00:11:21:61:84:a0	 -62
1295795072.854898 	 00:11:21:61:84:a0	 -62
1295795073.133437 	 00:11:21:61:84:a0	 -65
1295795073.413152 	 00:11:21:61:84:a0	 -65
1295795073.689206 	 00:11:21:61:84:a0	 -60
1295795073.965173 	 00:11:21:61:84:a0	 -60
1295795074.247815 	 00:11:21:61:84:a0	 -68
1295795074.529793 	 00:11:21:61:84:a0	 -68
1295795074.817935 	 00:11:21:61:84:a0	 -59
1295795075.106142 	 00:11:21:61:84:a0	 -60
1295795075.394102 	 00:11:21:61:84:a0	 -60
1295795075.681915 	 00:11:21:61:84:a0	 -60
1295795075.970168 	 00:11:21:61:84:a0	 -60
1295795076.267441 	 00:11:21:61:84:a0	 -67
1295795076.561970 	 00:11:21:61:84:a0	 -59
1295795076.848935 	 00:11:21:61:84:a0	 -59
1295795077.134470 	 00:11:21:61:84:a0	 -59
1295795077.422514 	 00:11:21:61:84:a0	 -65
1295795077.710366 	 00:11:21:61:84:a0	 -65
1295795077.998507 	 00:11:21:61:84:a0	 -59
1295795078.287300 	 00:11:21:61:84:a0	 -59
1295795078.575723 	 00:11:21:61:84:a0	 -60
1295795078.864591 	 00:11:21:61:84:a0	 -60
1295795079.145135 	 00:11:21:61:84:a0	 -59
1295795079.425130 	 00:11:21:61:84:a0	 -59
1295795079.708388 	 00:11:21:61:84:a0	 -60
1295795079.987387 	 00:11:21:61:84:a0	 -60
1295795080.281514 	 00:11:21:61:84:a0	 -59
1295795080.568465 	 00:11:21:61:84:a0	 -59
1295795080.869810 	 00:11:21:61:84:a0	 -58
1295795081.156706 	 00:11:21:61:84:a0	 -58
1295795081.437045 	 00:11:21:61:84:a0	 -58
1295795081.722567 	 00:11:21:61:84:a0	 -58
1295795082.004898 	 00:11:21:61:84:a0	 -59
1295795082.281770 	 00:11:21:61:84:a0	 -59
1295795082.564676 	 00:11:21:61:84:a0	 -65
1295795082.843743 	 00:11:21:61:84:a0	 -65
1295795083.137254 	 00:11:21:61:84:a0	 -65
1295795083.418850 	 00:11:21:61:84:a0	 -65
1295795083.697857 	 00:11:21:61:84:a0	 -65
1295795083.978931 	 00:11:21:61:84:a0	 -65
1295795084.266536 	 00:11:21:61:84:a0	 -59
1295795084.547258 	 00:11:21:61:84:a0	 -59
1295795084.841615 	 00:11:21:61:84:a0	 -64
1295795085.123154 	 00:11:21:61:84:a0	 -64
1295795085.408719 	 00:11:21:61:84:a0	 -60
1295795085.687951 	 00:11:21:61:84:a0	 -60
1295795085.966599 	 00:11:21:61:84:a0	 -65
1295795025.605518 	 00:11:21:61:84:a0	 -64
1295795025.856929 	 00:11:21:61:84:a0	 -64
1295795026.108336 	 00:11:21:61:84:a0	 -65
1295795026.359674 	 00:11:21:61:84:a0	 -65
1295795026.613274 	 00:11:21:61:84:a0	 -64
1295795026.864924 	 00:11:21:61:84:a0	 -64
1295795027.118622 	 00:11:21:61:84:a0	 -68
1295795027.370246 	 00:11:21:61:84:a0	 -68
1295795027.623949 	 00:11:21:61:84:a0	 -65
1295795027.875760 	 00:11:21:61:84:a0	 -65
1295795028.129863 	 00:11:21:61:84:a0	 -58
1295795028.381734 	 00:11:21:61:84:a0	 -58
1295795028.635748 	 00:11:21:61:84:a0	 -60
1295795028.887666 	 00:11:21:61:84:a0	 -60
1295795029.139768 	 00:11:21:61:84:a0	 -63
1295795029.391828 	 00:11:21:61:84:a0	 -63
1295795029.646080 	 00:11:21:61:84:a0	 -63
1295795029.898350 	 00:11:21:61:84:a0	 -63
1295795030.152793 	 00:11:21:61:84:a0	 -59
1295795030.405254 	 00:11:21:61:84:a0	 -59
1295795030.659762 	 00:11:21:61:84:a0	 -59
1295795030.912055 	 00:11:21:61:84:a0	 -59
1295795031.166534 	 00:11:21:61:84:a0	 -59
1295795031.419048 	 00:11:21:61:84:a0	 -59
1295795031.671457 	 00:11:21:61:84:a0	 -69
1295795031.923938 	 00:11:21:61:84:a0	 -69
1295795032.178583 	 00:11:21:61:84:a0	 -60
1295795032.431275 	 00:11:21:61:84:a0	 -60
1295795032.686190 	 00:11:21:61:84:a0	 -63
1295795032.938839 	 00:11:21:61:84:a0	 -63
1295795033.193804 	 00:11:21:61:84:a0	 -59
1295795033.446653 	 00:11:21:61:84:a0	 -59
1295795033.701771 	 00:11:21:61:84:a0	 -59
1295795033.954716 	 00:11:21:61:84:a0	 -59
1295795034.209874 	 00:11:21:61:84:a0	 -65
1295795034.462733 	 00:11:21:61:84:a0	 -65
1295795034.715738 	 00:11:21:61:84:a0	 -66
1295795034.968832 	 00:11:21:61:84:a0	 -66
1295795035.224060 	 00:11:21:61:84:a0	 -60
1295795035.477198 	 00:11:21:61:84:a0	 -60
1295795035.732491 	 00:11:21:61:84:a0	 -65
1295795035.985697 	 00:11:21:61:84:a0	 -65
1295795036.241004 	 00:11:21:61:84:a0	 -65
1295795036.494256 	 00:11:21:61:84:a0	 -65
1295795036.749795 	 00:11:21:61:84:a0	 -69
1295795037.006233 	 00:11:21:61:84:a0	 -69
1295795037.265524 	 00:11:21:61:84:a0	 -59
1295795037.518877 	 00:11:21:61:84:a0	 -59
1295795037.774440 	 00:11:21:61:84:a0	 -65
1295795038.027962 	 00:11:21:61:84:a0	 -65
1295795038.283682 	 00:11:21:61:84:a0	 -64
1295795038.537513 	 00:11:21:61:84:a0	 -64
1295795038.793406 	 00:11:21:61:84:a0	 -65
1295795039.047273 	 00:11:21:61:84:a0	 -65
1295795039.303040 	 00:11:21:61:84:a0	 -59
1295795039.556858 	 00:11:21:61:84:a0	 -59
1295795039.812847 	 00:11:21:61:84:a0	 -59
1295795040.066516 	 00:11:21:61:84:a0	 -59
1295795040.323686 	 00:11:21:61:84:a0	 -63
1295795040.577693 	 00:11:21:61:84:a0	 -63
1295795040.835879 	 00:11:21:61:84:a0	 -60
1295795041.090034 	 00:11:21:61:84:a0	 -60
1295795041.348003 	 00:11:21:61:84:a0	 -59
1295795041.602131 	 00:11:21:61:84:a0	 -59
1295795041.859869 	 00:11:21:61:84:a0	 -65
1295795042.114275 	 00:11:21:61:84:a0	 -65
1295795042.372149 	 00:11:21:61:84:a0	 -60
1295795042.626457 	 00:11:21:61:84:a0	 -60
1295795042.884314 	 00:11:21:61:84:a0	 -60
1295795043.141286 	 00:11:21:61:84:a0	 -60
1295795043.397811 	 00:11:21:61:84:a0	 -65
1295795043.654355 	 00:11:21:61:84:a0	 -65
1295795043.912243 	 00:11:21:61:84:a0	 -68
1295795044.169182 	 00:11:21:61:84:a0	 -68
1295795044.428146 	 00:11:21:61:84:a0	 -60
1295795044.684937 	 00:11:21:61:84:a0	 -60
1295795044.943950 	 00:11:21:61:84:a0	 -62
1295795045.200975 	 00:11:21:61:84:a0	 -62
1295795045.459976 	 00:11:21:61:84:a0	 -67
1295795045.717089 	 00:11:21:61:84:a0	 -67
1295795045.976248 	 00:11:21:61:84:a0	 -59
1295795046.233336 	 00:11:21:61:84:a0	 -59
1295795046.490491 	 00:11:21:61:84:a0	 -62
1295795046.746583 	 00:11:21:61:84:a0	 -62
1295795047.004506 	 00:11:21:61:84:a0	 -60
1295795047.261671 	 00:11:21:61:84:a0	 -60
1295795047.520588 	 00:11:21:61:84:a0	 -68
1295795047.777615 	 00:11:21:61:84:a0	 -68
1295795048.036821 	 00:11:21:61:84:a0	 -65
1295795048.293977 	 00:11:21:61:84:a0	 -65
1295795048.552853 	 00:11:21:61:84:a0	 -64
1295795048.810153 	 00:11:21:61:84:a0	 -64
1295795049.068616 	 00:11:21:61:84:a0	 -60
1295795049.325840 	 00:11:21:61:84:a0	 -60
1295795049.584937 	 00:11:21:61:84:a0	 -65
1295795049.840362 	 00:11:21:61:84:a0	 -65
1295795050.099769 	 00:11:21:61:84:a0	 -60
1295795050.378764 	 00:11:21:61:84:a0	 -60
1295795050.637004 	 00:11:21:61:84:a0	 -59
1295795050.894345 	 00:11:21:61:84:a0	 -59
1295795051.153029 	 00:11:21:61:84:a0	 -66
1295795051.410434 	 00:11:21:61:84:a0	 -66
1295795051.668931 	 00:11:21:61:84:a0	 -60
1295795051.926404 	 00:11:21:61:84:a0	 -60
1295795052.185136 	 00:11:21:61:84:a0	 -60
1295795052.442623 	 00:11:21:61:84:a0	 -60
1295795052.701016 	 00:11:21:61:84:a0	 -60
1295795052.958599 	 00:11:21:61:84:a0	 -60
1295795053.217857 	 00:11:21:61:84:a0	 -59
1295795053.475054 	 00:11:21:61:84:a0	 -59
1295795053.746618 	 00:11:21:61:84:a0	 -65
1295795054.006253 	 00:11:21:61:84:a0	 -65
1295795054.268481 	 00:11:21:61:84:a0	 -65
1295795054.526394 	 00:11:21:61:84:a0	 -65
1295795054.785262 	 00:11:21:61:84:a0	 -59
1295795055.041302 	 00:11:21:61:84:a0	 -59
1295795055.299611 	 00:11:21:61:84:a0	 -60
1295795055.579173 	 00:11:21:61:84:a0	 -60
1295795055.851174 	 00:11:21:61:84:a0	 -60
1295795056.133226 	 00:11:21:61:84:a0	 -60
1295795056.391804 	 00:11:21:61:84:a0	 -59
1295795056.671786 	 00:11:21:61:84:a0	 -59
1295795056.950508 	 00:11:21:61:84:a0	 -60
1295795057.231466 	 00:11:21:61:84:a0	 -60
1295795057.513743 	 00:11:21:61:84:a0	 -65
1295795057.795517 	 00:11:21:61:84:a0	 -65
1295795058.077923 	 00:11:21:61:84:a0	 -65
1295795058.359937 	 00:11:21:61:84:a0	 -65
1295795058.630891 	 00:11:21:61:84:a0	 -60
1295795058.911945 	 00:11:21:61:84:a0	 -60
1295795059.182726 	 00:11:21:61:84:a0	 -69
1295795059.463823 	 00:11:21:61:84:a0	 -69
1295795059.746485 	 00:11:21:61:84:a0	 -59
1295795060.027767 	 00:11:21:61:84:a0	 -59
1295795060.312749 	 00:11:21:61:84:a0	 -60
1295795060.581517 	 00:11:21:61:84:a0	 -60
1295795060.856037 	 00:11:21:61:84:a0	 -60
1295795061.125061 	 00:11:21:61:84:a0	 -60
1295795061.395979 	 00:11:21:61:84:a0	 -68
1295795061.676603 	 00:11:21:61:84:a0	 -68
1295795061.947472 	 00:11:21:61:84:a0	 -65
1295795062.242959 	 00:11:21:61:84:a0	 -68
1295795062.514282 	 00:11:21:61:84:a0	 -68
1295795062.788267 	 00:11:21:61:84:a0	 -60
1295795063.057066 	 00:11:21:61:84:a0	 -60
1295795063.328134 	 00:11:21:61:84:a0	 -59
1295795063.596944 	 00:11:21:61:84:a0	 -59
1295795063.867909 	 00:11:21:61:84:a0	 -60
1295795064.137092 	 00:11:21:61:84:a0	 -60
1295795064.408292 	 00:11:21:61:84:a0	 -65
1295795064.677158 	 00:11:21:61:84:a0	 -65
1295795064.947056 	 00:11:21:61:84:a0	 -59
1295795065.226591 	 00:11:21:61:84:a0	 -59
1295795065.500331 	 00:11:21:61:84:a0	 -66
1295795065.769402 	 00:11:21:61:84:a0	 -66
1295795066.044564 	 00:11:21:61:84:a0	 -60
1295795066.314043 	 00:11:21:61:84:a0	 -60
1295795066.588594 	 00:11:21:61:84:a0	 -60
1295795066.857910 	 00:11:21:61:84:a0	 -60
1295795067.132471 	 00:11:21:61:84:a0	 -60
1295795067.401748 	 00:11:21:61:84:a0	 -60
1295795067.676629 	 00:11:21:61:84:a0	 -60
1295795067.946070 	 00:11:21:61:84:a0	 -60
1295795068.228537 	 00:11:21:61:84:a0	 -62
1295795068.497966 	 00:11:21:61:84:a0	 -62
1295795068.772574 	 00:11:21:61:84:a0	 -65
1295795069.042103 	 00:11:21:61:84:a0	 -65
1295795069.316759 	 00:11:21:61:84:a0	 -60
1295795069.586160 	 00:11:21:61:84:a0	 -60
1295795069.860787 	 00:11:21:61:84:a0	 -60
1295795070.130276 	 00:11:21:61:84:a0	 -60
1295795070.404662 	 00:11:21:61:84:a0	 -65
1295795070.674001 	 00:11:21:61:84:a0	 -65
1295795070.948812 	 00:11:21:61:84:a0	 -60
1295795071.220616 	 00:11:21:61:84:a0	 -60
1295795071.492160 	 00:11:21:61:84:a0	 -62
1295795071.761644 	 00:11:21:61:84:a0	 -62
1295795072.036477 	 00:11:21:61:84:a0	 -60
1295795072.309965 	 00:11:21:61:84:a0	 -60
1295795072.584856 	 00:11:21:61:84:a0	 -60
1295795072.854915 	 00:11:21:61:84:a0	 -60
1295795073.133454 	 00:11:21:61:84:a0	 -65
1295795073.413169 	 00:11:21:61:84:a0	 -65
1295795073.689223 	 00:11:21:61:84:a0	 -60
1295795073.965190 	 00:11:21:61:84:a0	 -60
1295795074.247832 	 00:11:21:61:84:a0	 -65
1295795074.529811 	 00:11:21:61:84:a0	 -65
1295795074.817952 	 00:11:21:61:84:a0	 -60
1295795075.106158 	 00:11:21:61:84:a0	 -60
1295795075.394118 	 00:11:21:61:84:a0	 -60
1295795075.681932 	 00:11:21:61:84:a0	 -60
1295795075.970185 	 00:11:21:61:84:a0	 -60
1295795076.267458 	 00:11:21:61:84:a0	 -65
1295795076.561998 	 00:11:21:61:84:a0	 -59
1295795076.848952 	 00:11:21:61:84:a0	 -65
1295795077.134486 	 00:11:21:61:84:a0	 -65
1295795077.422531 	 00:11:21:61:84:a0	 -64
1295795077.710383 	 00:11:21:61:84:a0	 -64
1295795077.998523 	 00:11:21:61:84:a0	 -58
1295795078.287317 	 00:11:21:61:84:a0	 -64
1295795078.575739 	 00:11:21:61:84:a0	 -59
1295795078.864608 	 00:11:21:61:84:a0	 -59
1295795079.145151 	 00:11:21:61:84:a0	 -59
1295795079.425147 	 00:11:21:61:84:a0	 -59
1295795079.708406 	 00:11:21:61:84:a0	 -59
1295795079.987403 	 00:11:21:61:84:a0	 -59
1295795080.281531 	 00:11:21:61:84:a0	 -59
1295795080.568482 	 00:11:21:61:84:a0	 -59
1295795080.869827 	 00:11:21:61:84:a0	 -69
1295795081.156722 	 00:11:21:61:84:a0	 -69
1295795081.437062 	 00:11:21:61:84:a0	 -63
1295795081.722583 	 00:11:21:61:84:a0	 -63
1295795082.004915 	 00:11:21:61:84:a0	 -59
1295795082.281787 	 00:11:21:61:84:a0	 -59
1295795082.564693 	 00:11:21:61:84:a0	 -67
1295795082.843760 	 00:11:21:61:84:a0	 -67
1295795083.137272 	 00:11:21:61:84:a0	 -65
1295795083.418867 	 00:11:21:61:84:a0	 -65
1295795083.697874 	 00:11:21:61:84:a0	 -59
1295795083.978947 	 00:11:21:61:84:a0	 -59
1295795084.266553 	 00:11:21:61:84:a0	 -59
1295795084.547275 	 00:11:21:61:84:a0	 -59
1295795084.841632 	 00:11:21:61:84:a0	 -67
1295795085.123172 	 00:11:21:61:84:a0	 -67
1295795085.408736 	 00:11:21:61:84:a0	 -59
1295795085.687968 	 00:11:21:61:84:a0	 -59
1295795085.966616 	 00:11:21:61:84:a0	 -65
1295795027.118655 	 00:11:21:61:84:a0	 -59
1295795027.370279 	 00:11:21:61:84:a0	 -59
1295795027.623986 	 00:11:21:61:84:a0	 -59
1295795027.875791 	 00:11:21:61:84:a0	 -59
1295795028.129894 	 00:11:21:61:84:a0	 -59
1295795028.381768 	 00:11:21:61:84:a0	 -59
1295795028.635781 	 00:11:21:61:84:a0	 -59
1295795028.887697 	 00:11:21:61:84:a0	 -59
1295795029.139801 	 00:11:21:61:84:a0	 -64
1295795029.391859 	 00:11:21:61:84:a0	 -64
1295795029.646117 	 00:11:21:61:84:a0	 -64
1295795029.898382 	 00:11:21:61:84:a0	 -64
1295795030.152825 	 00:11:21:61:84:a0	 -64
1295795030.405286 	 00:11:21:61:84:a0	 -64
1295795030.659794 	 00:11:21:61:84:a0	 -64
1295795030.912087 	 00:11:21:61:84:a0	 -64
1295795031.166566 	 00:11:21:61:84:a0	 -64
1295795031.419080 	 00:11:21:61:84:a0	 -64
1295795031.671489 	 00:11:21:61:84:a0	 -64
1295795031.923970 	 00:11:21:61:84:a0	 -64
1295795032.178615 	 00:11:21:61:84:a0	 -64
1295795032.431307 	 00:11:21:61:84:a0	 -64
1295795032.686222 	 00:11:21:61:84:a0	 -64
1295795032.938872 	 00:11:21:61:84:a0	 -64
1295795033.193835 	 00:11:21:61:84:a0	 -64
1295795033.446685 	 00:11:21:61:84:a0	 -64
1295795033.701807 	 00:11:21:61:84:a0	 -64
1295795033.954747 	 00:11:21:61:84:a0	 -64
1295795034.209906 	 00:11:21:61:84:a0	 -64
1295795034.462765 	 00:11:21:61:84:a0	 -64
1295795034.715771 	 00:11:21:61:84:a0	 -64
1295795034.968864 	 00:11:21:61:84:a0	 -64
1295795035.224092 	 00:11:21:61:84:a0	 -64
1295795035.477231 	 00:11:21:61:84:a0	 -64
1295795035.732522 	 00:11:21:61:84:a0	 -64
1295795035.985750 	 00:11:21:61:84:a0	 -64
1295795036.241037 	 00:11:21:61:84:a0	 -64
1295795036.494288 	 00:11:21:61:84:a0	 -64
1295795036.749827 	 00:11:21:61:84:a0	 -64
1295795037.006265 	 00:11:21:61:84:a0	 -64
1295795037.265557 	 00:11:21:61:84:a0	 -64
1295795037.518910 	 00:11:21:61:84:a0	 -64
1295795037.774473 	 00:11:21:61:84:a0	 -64
1295795038.027993 	 00:11:21:61:84:a0	 -64
1295795038.283714 	 00:11:21:61:84:a0	 -64
1295795038.537545 	 00:11:21:61:84:a0	 -64
1295795038.793438 	 00:11:21:61:84:a0	 -64
1295795039.047306 	 00:11:21:61:84:a0	 -64
1295795039.303073 	 00:11:21:61:84:a0	 -64
1295795039.556891 	 00:11:21:61:84:a0	 -64
1295795039.812879 	 00:11:21:61:84:a0	 -64
1295795040.066536 	 00:11:21:61:84:a0	 -64
1295795040.323719 	 00:11:21:61:84:a0	 -64
1295795040.577746 	 00:11:21:61:84:a0	 -64
1295795040.835912 	 00:11:21:61:84:a0	 -60
1295795041.090066 	 00:11:21:61:84:a0	 -60
1295795041.348035 	 00:11:21:61:84:a0	 -60
1295795041.602163 	 00:11:21:61:84:a0	 -60
1295795041.859910 	 00:11:21:61:84:a0	 -60
1295795042.114308 	 00:11:21:61:84:a0	 -60
1295795042.372181 	 00:11:21:61:84:a0	 -60
1295795042.626489 	 00:11:21:61:84:a0	 -60
1295795042.884346 	 00:11:21:61:84:a0	 -60
1295795043.141319 	 00:11:21:61:84:a0	 -60
1295795043.397843 	 00:11:21:61:84:a0	 -60
1295795043.654387 	 00:11:21:61:84:a0	 -60
1295795043.912275 	 00:11:21:61:84:a0	 -60
1295795044.169214 	 00:11:21:61:84:a0	 -60
1295795044.428178 	 00:11:21:61:84:a0	 -60
1295795044.684969 	 00:11:21:61:84:a0	 -60
1295795044.943982 	 00:11:21:61:84:a0	 -60
1295795045.201007 	 00:11:21:61:84:a0	 -60
1295795045.460008 	 00:11:21:61:84:a0	 -60
1295795045.717121 	 00:11:21:61:84:a0	 -60
1295795045.976280 	 00:11:21:61:84:a0	 -60
1295795046.233367 	 00:11:21:61:84:a0	 -60
1295795046.490524 	 00:11:21:61:84:a0	 -60
1295795046.746615 	 00:11:21:61:84:a0	 -60
1295795047.004538 	 00:11:21:61:84:a0	 -60
1295795047.261740 	 00:11:21:61:84:a0	 -60
1295795047.520621 	 00:11:21:61:84:a0	 -60
1295795047.777648 	 00:11:21:61:84:a0	 -60
1295795048.036854 	 00:11:21:61:84:a0	 -60
1295795048.294009 	 00:11:21:61:84:a0	 -60
1295795048.552885 	 00:11:21:61:84:a0	 -60
1295795048.810185 	 00:11:21:61:84:a0	 -60
1295795049.068648 	 00:11:21:61:84:a0	 -60
1295795049.325872 	 00:11:21:61:84:a0	 -60
1295795049.584969 	 00:11:21:61:84:a0	 -60
1295795049.840395 	 00:11:21:61:84:a0	 -60
1295795050.099802 	 00:11:21:61:84:a0	 -60
1295795050.378796 	 00:11:21:61:84:a0	 -60
1295795050.637036 	 00:11:21:61:84:a0	 -60
1295795050.894378 	 00:11:21:61:84:a0	 -60
1295795051.153062 	 00:11:21:61:84:a0	 -60
1295795051.410467 	 00:11:21:61:84:a0	 -60
1295795051.668963 	 00:11:21:61:84:a0	 -60
1295795051.926435 	 00:11:21:61:84:a0	 -60
1295795052.185168 	 00:11:21:61:84:a0	 -60
1295795052.442655 	 00:11:21:61:84:a0	 -60
1295795052.701049 	 00:11:21:61:84:a0	 -61
1295795052.958631 	 00:11:21:61:84:a0	 -61
1295795053.217890 	 00:11:21:61:84:a0	 -60
1295795053.475086 	 00:11:21:61:84:a0	 -60
1295795053.746651 	 00:11:21:61:84:a0	 -60
1295795054.006285 	 00:11:21:61:84:a0	 -60
1295795054.268513 	 00:11:21:61:84:a0	 -60
1295795054.526426 	 00:11:21:61:84:a0	 -60
1295795054.785294 	 00:11:21:61:84:a0	 -60
1295795055.041335 	 00:11:21:61:84:a0	 -60
1295795055.299642 	 00:11:21:61:84:a0	 -60
1295795055.579206 	 00:11:21:61:84:a0	 -60
1295795055.851206 	 00:11:21:61:84:a0	 -60
1295795056.133259 	 00:11:21:61:84:a0	 -60
1295795056.391837 	 00:11:21:61:84:a0	 -60
1295795056.671818 	 00:11:21:61:84:a0	 -60
1295795056.950540 	 00:11:21:61:84:a0	 -60
1295795057.231499 	 00:11:21:61:84:a0	 -60
1295795057.513777 	 00:11:21:61:84:a0	 -60
1295795057.795550 	 00:11:21:61:84:a0	 -60
1295795058.077955 	 00:11:21:61:84:a0	 -60
1295795058.359970 	 00:11:21:61:84:a0	 -60
1295795058.630934 	 00:11:21:61:84:a0	 -60
1295795058.911978 	 00:11:21:61:84:a0	 -60
1295795059.182759 	 00:11:21:61:84:a0	 -60
1295795059.463855 	 00:11:21:61:84:a0	 -60
1295795059.746518 	 00:11:21:61:84:a0	 -60
1295795060.027800 	 00:11:21:61:84:a0	 -60
1295795060.312782 	 00:11:21:61:84:a0	 -60
1295795060.581550 	 00:11:21:61:84:a0	 -60
1295795060.856069 	 00:11:21:61:84:a0	 -60
1295795061.125094 	 00:11:21:61:84:a0	 -60
1295795061.396011 	 00:11:21:61:84:a0	 -65
1295795061.676635 	 00:11:21:61:84:a0	 -65
1295795061.947505 	 00:11:21:61:84:a0	 -65
1295795062.242993 	 00:11:21:61:84:a0	 -65
1295795062.514314 	 00:11:21:61:84:a0	 -65
1295795062.788300 	 00:11:21:61:84:a0	 -65
1295795063.057081 	 00:11:21:61:84:a0	 -65
1295795063.328167 	 00:11:21:61:84:a0	 -65
1295795063.596977 	 00:11:21:61:84:a0	 -65
1295795063.867942 	 00:11:21:61:84:a0	 -66
1295795064.137125 	 00:11:21:61:84:a0	 -66
1295795064.408324 	 00:11:21:61:84:a0	 -66
1295795064.677191 	 00:11:21:61:84:a0	 -66
1295795064.947089 	 00:11:21:61:84:a0	 -66
1295795065.226624 	 00:11:21:61:84:a0	 -66
1295795065.500375 	 00:11:21:61:84:a0	 -65
1295795065.769435 	 00:11:21:61:84:a0	 -65
1295795066.044597 	 00:11:21:61:84:a0	 -65
1295795066.314075 	 00:11:21:61:84:a0	 -65
1295795066.588626 	 00:11:21:61:84:a0	 -65
1295795066.857942 	 00:11:21:61:84:a0	 -65
1295795067.132504 	 00:11:21:61:84:a0	 -65
1295795067.401781 	 00:11:21:61:84:a0	 -65
1295795067.676661 	 00:11:21:61:84:a0	 -65
1295795067.946103 	 00:11:21:61:84:a0	 -65
1295795068.228570 	 00:11:21:61:84:a0	 -65
1295795068.497999 	 00:11:21:61:84:a0	 -65
1295795068.772607 	 00:11:21:61:84:a0	 -68
1295795069.042136 	 00:11:21:61:84:a0	 -68
1295795069.316792 	 00:11:21:61:84:a0	 -68
1295795069.586192 	 00:11:21:61:84:a0	 -68
1295795069.860819 	 00:11:21:61:84:a0	 -68
1295795070.130310 	 00:11:21:61:84:a0	 -68
1295795070.404695 	 00:11:21:61:84:a0	 -65
1295795070.674034 	 00:11:21:61:84:a0	 -65
1295795070.948845 	 00:11:21:61:84:a0	 -65
1295795071.220649 	 00:11:21:61:84:a0	 -65
1295795071.492193 	 00:11:21:61:84:a0	 -65
1295795071.761678 	 00:11:21:61:84:a0	 -65
1295795072.036493 	 00:11:21:61:84:a0	 -65
1295795072.309998 	 00:11:21:61:84:a0	 -65
1295795072.584889 	 00:11:21:61:84:a0	 -65
1295795072.854947 	 00:11:21:61:84:a0	 -65
1295795073.133486 	 00:11:21:61:84:a0	 -65
1295795073.413202 	 00:11:21:61:84:a0	 -65
1295795073.689255 	 00:11:21:61:84:a0	 -65
1295795073.965222 	 00:11:21:61:84:a0	 -65
1295795074.247865 	 00:11:21:61:84:a0	 -65
1295795074.529844 	 00:11:21:61:84:a0	 -65
1295795074.817985 	 00:11:21:61:84:a0	 -65
1295795075.106191 	 00:11:21:61:84:a0	 -65
1295795075.394150 	 00:11:21:61:84:a0	 -65
1295795075.681964 	 00:11:21:61:84:a0	 -65
1295795075.970217 	 00:11:21:61:84:a0	 -65
1295795076.267491 	 00:11:21:61:84:a0	 -65
1295795076.562031 	 00:11:21:61:84:a0	 -59
1295795076.848984 	 00:11:21:61:84:a0	 -59
1295795077.134519 	 00:11:21:61:84:a0	 -59
1295795077.422564 	 00:11:21:61:84:a0	 -59
1295795077.710415 	 00:11:21:61:84:a0	 -59
1295795077.998556 	 00:11:21:61:84:a0	 -62
1295795078.287349 	 00:11:21:61:84:a0	 -62
1295795078.575772 	 00:11:21:61:84:a0	 -62
1295795078.864641 	 00:11:21:61:84:a0	 -62
1295795079.145185 	 00:11:21:61:84:a0	 -62
1295795079.425181 	 00:11:21:61:84:a0	 -62
1295795079.708438 	 00:11:21:61:84:a0	 -62
1295795079.987436 	 00:11:21:61:84:a0	 -62
1295795080.281563 	 00:11:21:61:84:a0	 -62
1295795080.568515 	 00:11:21:61:84:a0	 -62
1295795080.869859 	 00:11:21:61:84:a0	 -62
1295795081.156756 	 00:11:21:61:84:a0	 -62
1295795081.437095 	 00:11:21:61:84:a0	 -62
1295795081.722616 	 00:11:21:61:84:a0	 -62
1295795082.004948 	 00:11:21:61:84:a0	 -62
1295795082.281820 	 00:11:21:61:84:a0	 -62
1295795082.564726 	 00:11:21:61:84:a0	 -62
1295795082.843793 	 00:11:21:61:84:a0	 -62
1295795083.137304 	 00:11:21:61:84:a0	 -62
1295795083.418900 	 00:11:21:61:84:a0	 -62
1295795083.697907 	 00:11:21:61:84:a0	 -62
1295795083.978980 	 00:11:21:61:84:a0	 -62
1295795084.266586 	 00:11:21:61:84:a0	 -62
1295795084.547308 	 00:11:21:61:84:a0	 -62
1295795084.841665 	 00:11:21:61:84:a0	 -64
1295795085.123205 	 00:11:21:61:84:a0	 -64
1295795085.408782 	 00:11:21:61:84:a0	 -64
1295795085.688000 	 00:11:21:61:84:a0	 -64
1295795085.966648 	 00:11:21:61:84:a0	 -64
1295795025.605371 	 00:11:93:03:1e:30	 -49
1295795025.856720 	 00:11:93:03:1e:30	 -49
1295795026.108125 	 00:11:93:03:1e:30	 -45
1295795026.359433 	 00:11:93:03:1e:30	 -45
1295795026.612984 	 00:11:93:03:1e:30	 -48
1295795026.864649 	 00:11:93:03:1e:30	 -48
1295795027.118355 	 00:11:93:03:1e:30	 -47
1295795027.369978 	 00:11:93:03:1e:30	 -47
1295795027.623636 	 00:11:93:03:1e:30	 -44
1295795027.875473 	 00:11:93:03:1e:30	 -44
1295795028.129549 	 00:11:93:03:1e:30	 -44
1295795028.381428 	 00:11:93:03:1e:30	 -44
1295795028.635462 	 00:11:93:03:1e:30	 -44
1295795028.887352 	 00:11:93:03:1e:30	 -44
1295795029.139468 	 00:11:93:03:1e:30	 -46
1295795029.391529 	 00:11:93:03:1e:30	 -46
1295795029.645752 	 00:11:93:03:1e:30	 -45
1295795029.898042 	 00:11:93:03:1e:30	 -45
1295795030.152490 	 00:11:93:03:1e:30	 -45
1295795030.404950 	 00:11:93:03:1e:30	 -45
1295795030.659445 	 00:11:93:03:1e:30	 -46
1295795030.911755 	 00:11:93:03:1e:30	 -46
1295795031.166225 	 00:11:93:03:1e:30	 -48
1295795031.418752 	 00:11:93:03:1e:30	 -48
1295795031.671131 	 00:11:93:03:1e:30	 -47
1295795031.923620 	 00:11:93:03:1e:30	 -47
1295795032.178264 	 00:11:93:03:1e:30	 -48
1295795032.430951 	 00:11:93:03:1e:30	 -48
1295795032.685871 	 00:11:93:03:1e:30	 -44
1295795032.938506 	 00:11:93:03:1e:30	 -44
1295795033.193469 	 00:11:93:03:1e:30	 -46
1295795033.446339 	 00:11:93:03:1e:30	 -46
1295795033.701413 	 00:11:93:03:1e:30	 -45
1295795033.954376 	 00:11:93:03:1e:30	 -45
1295795034.209531 	 00:11:93:03:1e:30	 -47
1295795034.462398 	 00:11:93:03:1e:30	 -47
1295795034.715418 	 00:11:93:03:1e:30	 -46
1295795034.968507 	 00:11:93:03:1e:30	 -46
1295795035.223747 	 00:11:93:03:1e:30	 -44
1295795035.476872 	 00:11:93:03:1e:30	 -44
1295795035.732168 	 00:11:93:03:1e:30	 -45
1295795035.985384 	 00:11:93:03:1e:30	 -45
1295795036.240695 	 00:11:93:03:1e:30	 -46
1295795036.493945 	 00:11:93:03:1e:30	 -46
1295795036.749448 	 00:11:93:03:1e:30	 -44
1295795037.005915 	 00:11:93:03:1e:30	 -44
1295795037.265196 	 00:11:93:03:1e:30	 -43
1295795037.518564 	 00:11:93:03:1e:30	 -43
1295795037.774117 	 00:11:93:03:1e:30	 -45
1295795038.027649 	 00:11:93:03:1e:30	 -45
1295795038.283371 	 00:11:93:03:1e:30	 -46
1295795038.537201 	 00:11:93:03:1e:30	 -46
1295795038.793094 	 00:11:93:03:1e:30	 -44
1295795039.046963 	 00:11:93:03:1e:30	 -44
1295795039.302730 	 00:11:93:03:1e:30	 -50
1295795039.556536 	 00:11:93:03:1e:30	 -50
1295795039.812526 	 00:11:93:03:1e:30	 -50
1295795040.066294 	 00:11:93:03:1e:30	 -50
1295795040.323351 	 00:11:93:03:1e:30	 -44
1295795040.577347 	 00:11:93:03:1e:30	 -44
1295795040.835548 	 00:11:93:03:1e:30	 -44
1295795041.089678 	 00:11:93:03:1e:30	 -44
1295795041.347674 	 00:11:93:03:1e:30	 -46
1295795041.601802 	 00:11:93:03:1e:30	 -46
1295795041.859507 	 00:11:93:03:1e:30	 -48
1295795042.113927 	 00:11:93:03:1e:30	 -48
1295795042.371799 	 00:11:93:03:1e:30	 -48
1295795042.626114 	 00:11:93:03:1e:30	 -48
1295795042.883962 	 00:11:93:03:1e:30	 -49
1295795043.140955 	 00:11:93:03:1e:30	 -49
1295795043.397439 	 00:11:93:03:1e:30	 -43
1295795043.654024 	 00:11:93:03:1e:30	 -43
1295795043.911893 	 00:11:93:03:1e:30	 -43
1295795044.168843 	 00:11:93:03:1e:30	 -43
1295795044.427814 	 00:11:93:03:1e:30	 -44
1295795044.684606 	 00:11:93:03:1e:30	 -44
1295795044.943607 	 00:11:93:03:1e:30	 -46
1295795045.200636 	 00:11:93:03:1e:30	 -46
1295795045.459632 	 00:11:93:03:1e:30	 -45
1295795045.716755 	 00:11:93:03:1e:30	 -45
1295795045.975906 	 00:11:93:03:1e:30	 -45
1295795046.233007 	 00:11:93:03:1e:30	 -45
1295795046.490147 	 00:11:93:03:1e:30	 -45
1295795046.746252 	 00:11:93:03:1e:30	 -45
1295795047.004109 	 00:11:93:03:1e:30	 -44
1295795047.261340 	 00:11:93:03:1e:30	 -44
1295795047.520258 	 00:11:93:03:1e:30	 -44
1295795047.777283 	 00:11:93:03:1e:30	 -44
1295795048.036483 	 00:11:93:03:1e:30	 -46
1295795048.293618 	 00:11:93:03:1e:30	 -46
1295795048.552522 	 00:11:93:03:1e:30	 -44
1295795048.809823 	 00:11:93:03:1e:30	 -44
1295795049.068286 	 00:11:93:03:1e:30	 -45
1295795049.325473 	 00:11:93:03:1e:30	 -45
1295795049.584607 	 00:11:93:03:1e:30	 -44
1295795049.840019 	 00:11:93:03:1e:30	 -44
1295795050.099439 	 00:11:93:03:1e:30	 -49
1295795050.378423 	 00:11:93:03:1e:30	 -49
1295795050.636670 	 00:11:93:03:1e:30	 -46
1295795050.894013 	 00:11:93:03:1e:30	 -46
1295795051.152699 	 00:11:93:03:1e:30	 -46
1295795051.410102 	 00:11:93:03:1e:30	 -46
1295795051.668598 	 00:11:93:03:1e:30	 -46
1295795051.926073 	 00:11:93:03:1e:30	 -46
1295795052.184790 	 00:11:93:03:1e:30	 -51
1295795052.442295 	 00:11:93:03:1e:30	 -51
1295795052.700676 	 00:11:93:03:1e:30	 -46
1295795052.958269 	 00:11:93:03:1e:30	 -46
1295795053.217489 	 00:11:93:03:1e:30	 -46
1295795053.474722 	 00:11:93:03:1e:30	 -46
1295795053.746287 	 00:11:93:03:1e:30	 -47
1295795054.005922 	 00:11:93:03:1e:30	 -47
1295795054.268151 	 00:11:93:03:1e:30	 -44
1295795054.526053 	 00:11:93:03:1e:30	 -44
1295795054.784932 	 00:11:93:03:1e:30	 -43
1295795055.040993 	 00:11:93:03:1e:30	 -43
1295795055.299314 	 00:11:93:03:1e:30	 -46
1295795055.578877 	 00:11:93:03:1e:30	 -46
1295795055.850877 	 00:11:93:03:1e:30	 -46
1295795056.132931 	 00:11:93:03:1e:30	 -46
1295795056.391497 	 00:11:93:03:1e:30	 -44
1295795056.671490 	 00:11:93:03:1e:30	 -44
1295795056.950200 	 00:11:93:03:1e:30	 -44
1295795057.231172 	 00:11:93:03:1e:30	 -44
1295795057.513410 	 00:11:93:03:1e:30	 -46
1295795057.795203 	 00:11:93:03:1e:30	 -46
1295795058.077586 	 00:11:93:03:1e:30	 -45
1295795058.359613 	 00:11:93:03:1e:30	 -45
1295795058.630541 	 00:11:93:03:1e:30	 -45
1295795058.911603 	 00:11:93:03:1e:30	 -45
1295795059.182399 	 00:11:93:03:1e:30	 -43
1295795059.463485 	 00:11:93:03:1e:30	 -43
1295795059.746146 	 00:11:93:03:1e:30	 -46
1295795060.027450 	 00:11:93:03:1e:30	 -46
1295795060.312434 	 00:11:93:03:1e:30	 -46
1295795060.581203 	 00:11:93:03:1e:30	 -46
1295795060.855715 	 00:11:93:03:1e:30	 -46
1295795061.124744 	 00:11:93:03:1e:30	 -46
1295795061.395666 	 00:11:93:03:1e:30	 -46
1295795061.676287 	 00:11:93:03:1e:30	 -46
1295795061.947158 	 00:11:93:03:1e:30	 -46
1295795062.242637 	 00:11:93:03:1e:30	 -43
1295795062.513969 	 00:11:93:03:1e:30	 -43
1295795062.787914 	 00:11:93:03:1e:30	 -47
1295795063.056908 	 00:11:93:03:1e:30	 -47
1295795063.327810 	 00:11:93:03:1e:30	 -44
1295795063.596627 	 00:11:93:03:1e:30	 -44
1295795063.867594 	 00:11:93:03:1e:30	 -44
1295795064.136776 	 00:11:93:03:1e:30	 -44
1295795064.407977 	 00:11:93:03:1e:30	 -44
1295795064.676841 	 00:11:93:03:1e:30	 -44
1295795064.946742 	 00:11:93:03:1e:30	 -47
1295795065.226266 	 00:11:93:03:1e:30	 -47
1295795065.500015 	 00:11:93:03:1e:30	 -45
1295795065.769086 	 00:11:93:03:1e:30	 -45
1295795066.044250 	 00:11:93:03:1e:30	 -44
1295795066.313726 	 00:11:93:03:1e:30	 -44
1295795066.588282 	 00:11:93:03:1e:30	 -44
1295795066.857559 	 00:11:93:03:1e:30	 -44
1295795067.132157 	 00:11:93:03:1e:30	 -46
1295795067.401398 	 00:11:93:03:1e:30	 -46
1295795067.676315 	 00:11:93:03:1e:30	 -45
1295795067.945743 	 00:11:93:03:1e:30	 -45
1295795068.228223 	 00:11:93:03:1e:30	 -68
1295795068.497629 	 00:11:93:03:1e:30	 -68
1295795068.772259 	 00:11:93:03:1e:30	 -46
1295795069.041771 	 00:11:93:03:1e:30	 -46
1295795069.316427 	 00:11:93:03:1e:30	 -45
1295795069.585828 	 00:11:93:03:1e:30	 -45
1295795069.860442 	 00:11:93:03:1e:30	 -44
1295795070.129946 	 00:11:93:03:1e:30	 -44
1295795070.404320 	 00:11:93:03:1e:30	 -44
1295795070.673650 	 00:11:93:03:1e:30	 -44
1295795070.948467 	 00:11:93:03:1e:30	 -46
1295795071.220287 	 00:11:93:03:1e:30	 -46
1295795071.491817 	 00:11:93:03:1e:30	 -46
1295795071.761318 	 00:11:93:03:1e:30	 -46
1295795072.036310 	 00:11:93:03:1e:30	 -46
1295795072.309611 	 00:11:93:03:1e:30	 -46
1295795072.584543 	 00:11:93:03:1e:30	 -45
1295795072.854592 	 00:11:93:03:1e:30	 -45
1295795073.133142 	 00:11:93:03:1e:30	 -44
1295795073.412844 	 00:11:93:03:1e:30	 -44
1295795073.688910 	 00:11:93:03:1e:30	 -46
1295795073.964865 	 00:11:93:03:1e:30	 -46
1295795074.247518 	 00:11:93:03:1e:30	 -44
1295795074.529474 	 00:11:93:03:1e:30	 -44
1295795074.817618 	 00:11:93:03:1e:30	 -45
1295795075.105845 	 00:11:93:03:1e:30	 -51
1295795075.393812 	 00:11:93:03:1e:30	 -51
1295795075.681611 	 00:11:93:03:1e:30	 -44
1295795075.969879 	 00:11:93:03:1e:30	 -44
1295795076.267153 	 00:11:93:03:1e:30	 -46
1295795076.561651 	 00:11:93:03:1e:30	 -45
1295795076.848655 	 00:11:93:03:1e:30	 -45
1295795077.134192 	 00:11:93:03:1e:30	 -45
1295795077.422233 	 00:11:93:03:1e:30	 -45
1295795077.710088 	 00:11:93:03:1e:30	 -45
1295795077.998214 	 00:11:93:03:1e:30	 -51
1295795078.287021 	 00:11:93:03:1e:30	 -51
1295795078.575443 	 00:11:93:03:1e:30	 -45
1295795078.864311 	 00:11:93:03:1e:30	 -45
1295795079.144857 	 00:11:93:03:1e:30	 -46
1295795079.424840 	 00:11:93:03:1e:30	 -46
1295795079.708108 	 00:11:93:03:1e:30	 -43
1295795079.987109 	 00:11:93:03:1e:30	 -43
1295795080.281235 	 00:11:93:03:1e:30	 -44
1295795080.568186 	 00:11:93:03:1e:30	 -44
1295795080.869501 	 00:11:93:03:1e:30	 -44
1295795081.156429 	 00:11:93:03:1e:30	 -44
1295795081.436768 	 00:11:93:03:1e:30	 -44
1295795081.722269 	 00:11:93:03:1e:30	 -44
1295795082.004600 	 00:11:93:03:1e:30	 -43
1295795082.281440 	 00:11:93:03:1e:30	 -43
1295795082.564379 	 00:11:93:03:1e:30	 -45
1295795082.843432 	 00:11:93:03:1e:30	 -45
1295795083.136957 	 00:11:93:03:1e:30	 -44
1295795083.418552 	 00:11:93:03:1e:30	 -44
1295795083.697536 	 00:11:93:03:1e:30	 -47
1295795083.978633 	 00:11:93:03:1e:30	 -47
1295795084.266238 	 00:11:93:03:1e:30	 -50
1295795084.546961 	 00:11:93:03:1e:30	 -50
1295795084.841305 	 00:11:93:03:1e:30	 -46
1295795085.122856 	 00:11:93:03:1e:30	 -46
1295795085.408425 	 00:11:93:03:1e:30	 -52
1295795085.687654 	 00:11:93:03:1e:30	 -52
1295795085.966265 	 00:11:93:03:1e:30	 -47
1295795025.605408 	 00:11:93:03:1e:30	 -49
1295795025.856761 	 00:11:93:03:1e:30	 -49
1295795026.108151 	 00:11:93:03:1e:30	 -45
1295795026.359455 	 00:11:93:03:1e:30	 -45
1295795026.613012 	 00:11:93:03:1e:30	 -50
1295795026.864672 	 00:11:93:03:1e:30	 -50
1295795027.118377 	 00:11:93:03:1e:30	 -48
1295795027.370000 	 00:11:93:03:1e:30	 -48
1295795027.623663 	 00:11:93:03:1e:30	 -46
1295795027.875495 	 00:11:93:03:1e:30	 -46
1295795028.129572 	 00:11:93:03:1e:30	 -44
1295795028.381451 	 00:11:93:03:1e:30	 -44
1295795028.635484 	 00:11:93:03:1e:30	 -43
1295795028.887375 	 00:11:93:03:1e:30	 -43
1295795029.139491 	 00:11:93:03:1e:30	 -50
1295795029.391551 	 00:11:93:03:1e:30	 -50
1295795029.645793 	 00:11:93:03:1e:30	 -71
1295795029.898065 	 00:11:93:03:1e:30	 -71
1295795030.152512 	 00:11:93:03:1e:30	 -45
1295795030.404973 	 00:11:93:03:1e:30	 -45
1295795030.659467 	 00:11:93:03:1e:30	 -46
1295795030.911778 	 00:11:93:03:1e:30	 -46
1295795031.166248 	 00:11:93:03:1e:30	 -46
1295795031.418775 	 00:11:93:03:1e:30	 -46
1295795031.671154 	 00:11:93:03:1e:30	 -48
1295795031.923643 	 00:11:93:03:1e:30	 -48
1295795032.178287 	 00:11:93:03:1e:30	 -47
1295795032.430974 	 00:11:93:03:1e:30	 -47
1295795032.685894 	 00:11:93:03:1e:30	 -45
1295795032.938529 	 00:11:93:03:1e:30	 -45
1295795033.193492 	 00:11:93:03:1e:30	 -46
1295795033.446362 	 00:11:93:03:1e:30	 -46
1295795033.701441 	 00:11:93:03:1e:30	 -46
1295795033.954399 	 00:11:93:03:1e:30	 -46
1295795034.209554 	 00:11:93:03:1e:30	 -46
1295795034.462421 	 00:11:93:03:1e:30	 -46
1295795034.715441 	 00:11:93:03:1e:30	 -46
1295795034.968530 	 00:11:93:03:1e:30	 -46
1295795035.223770 	 00:11:93:03:1e:30	 -44
1295795035.476895 	 00:11:93:03:1e:30	 -44
1295795035.732190 	 00:11:93:03:1e:30	 -44
1295795035.985407 	 00:11:93:03:1e:30	 -44
1295795036.240718 	 00:11:93:03:1e:30	 -47
1295795036.493967 	 00:11:93:03:1e:30	 -47
1295795036.749471 	 00:11:93:03:1e:30	 -45
1295795037.005938 	 00:11:93:03:1e:30	 -45
1295795037.265219 	 00:11:93:03:1e:30	 -45
1295795037.518587 	 00:11:93:03:1e:30	 -45
1295795037.774140 	 00:11:93:03:1e:30	 -44
1295795038.027672 	 00:11:93:03:1e:30	 -44
1295795038.283394 	 00:11:93:03:1e:30	 -47
1295795038.537224 	 00:11:93:03:1e:30	 -47
1295795038.793117 	 00:11:93:03:1e:30	 -45
1295795039.046986 	 00:11:93:03:1e:30	 -45
1295795039.302753 	 00:11:93:03:1e:30	 -46
1295795039.556558 	 00:11:93:03:1e:30	 -46
1295795039.812549 	 00:11:93:03:1e:30	 -46
1295795040.066309 	 00:11:93:03:1e:30	 -46
1295795040.323374 	 00:11:93:03:1e:30	 -45
1295795040.577370 	 00:11:93:03:1e:30	 -45
1295795040.835571 	 00:11:93:03:1e:30	 -45
1295795041.089701 	 00:11:93:03:1e:30	 -45
1295795041.347697 	 00:11:93:03:1e:30	 -48
1295795041.601825 	 00:11:93:03:1e:30	 -48
1295795041.859547 	 00:11:93:03:1e:30	 -46
1295795042.113950 	 00:11:93:03:1e:30	 -46
1295795042.371822 	 00:11:93:03:1e:30	 -47
1295795042.626137 	 00:11:93:03:1e:30	 -47
1295795042.883985 	 00:11:93:03:1e:30	 -47
1295795043.140977 	 00:11:93:03:1e:30	 -47
1295795043.397462 	 00:11:93:03:1e:30	 -44
1295795043.654047 	 00:11:93:03:1e:30	 -44
1295795043.911916 	 00:11:93:03:1e:30	 -44
1295795044.168866 	 00:11:93:03:1e:30	 -44
1295795044.427837 	 00:11:93:03:1e:30	 -44
1295795044.684629 	 00:11:93:03:1e:30	 -44
1295795044.943630 	 00:11:93:03:1e:30	 -44
1295795045.200658 	 00:11:93:03:1e:30	 -44
1295795045.459655 	 00:11:93:03:1e:30	 -45
1295795045.716779 	 00:11:93:03:1e:30	 -45
1295795045.975929 	 00:11:93:03:1e:30	 -44
1295795046.233030 	 00:11:93:03:1e:30	 -44
1295795046.490170 	 00:11:93:03:1e:30	 -45
1295795046.746275 	 00:11:93:03:1e:30	 -45
1295795047.004131 	 00:11:93:03:1e:30	 -44
1295795047.261363 	 00:11:93:03:1e:30	 -44
1295795047.520281 	 00:11:93:03:1e:30	 -45
1295795047.777306 	 00:11:93:03:1e:30	 -45
1295795048.036506 	 00:11:93:03:1e:30	 -46
1295795048.293641 	 00:11:93:03:1e:30	 -46
1295795048.552545 	 00:11:93:03:1e:30	 -45
1295795048.809845 	 00:11:93:03:1e:30	 -45
1295795049.068308 	 00:11:93:03:1e:30	 -44
1295795049.325496 	 00:11:93:03:1e:30	 -44
1295795049.584629 	 00:11:93:03:1e:30	 -45
1295795049.840042 	 00:11:93:03:1e:30	 -45
1295795050.099462 	 00:11:93:03:1e:30	 -46
1295795050.378446 	 00:11:93:03:1e:30	 -46
1295795050.636693 	 00:11:93:03:1e:30	 -48
1295795050.894035 	 00:11:93:03:1e:30	 -48
1295795051.152721 	 00:11:93:03:1e:30	 -46
1295795051.410125 	 00:11:93:03:1e:30	 -46
1295795051.668621 	 00:11:93:03:1e:30	 -46
1295795051.926096 	 00:11:93:03:1e:30	 -46
1295795052.184813 	 00:11:93:03:1e:30	 -48
1295795052.442317 	 00:11:93:03:1e:30	 -48
1295795052.700699 	 00:11:93:03:1e:30	 -48
1295795052.958292 	 00:11:93:03:1e:30	 -48
1295795053.217511 	 00:11:93:03:1e:30	 -47
1295795053.474745 	 00:11:93:03:1e:30	 -47
1295795053.746310 	 00:11:93:03:1e:30	 -46
1295795054.005945 	 00:11:93:03:1e:30	 -46
1295795054.268173 	 00:11:93:03:1e:30	 -43
1295795054.526076 	 00:11:93:03:1e:30	 -43
1295795054.784955 	 00:11:93:03:1e:30	 -44
1295795055.041016 	 00:11:93:03:1e:30	 -44
1295795055.299337 	 00:11:93:03:1e:30	 -50
1295795055.578900 	 00:11:93:03:1e:30	 -50
1295795055.850900 	 00:11:93:03:1e:30	 -47
1295795056.132953 	 00:11:93:03:1e:30	 -47
1295795056.391521 	 00:11:93:03:1e:30	 -44
1295795056.671514 	 00:11:93:03:1e:30	 -44
1295795056.950224 	 00:11:93:03:1e:30	 -44
1295795057.231195 	 00:11:93:03:1e:30	 -44
1295795057.513434 	 00:11:93:03:1e:30	 -46
1295795057.795227 	 00:11:93:03:1e:30	 -46
1295795058.077610 	 00:11:93:03:1e:30	 -45
1295795058.359636 	 00:11:93:03:1e:30	 -45
1295795058.630571 	 00:11:93:03:1e:30	 -45
1295795058.911627 	 00:11:93:03:1e:30	 -45
1295795059.182423 	 00:11:93:03:1e:30	 -44
1295795059.463509 	 00:11:93:03:1e:30	 -44
1295795059.746171 	 00:11:93:03:1e:30	 -45
1295795060.027474 	 00:11:93:03:1e:30	 -45
1295795060.312457 	 00:11:93:03:1e:30	 -46
1295795060.581227 	 00:11:93:03:1e:30	 -46
1295795060.855738 	 00:11:93:03:1e:30	 -46
1295795061.124768 	 00:11:93:03:1e:30	 -46
1295795061.395690 	 00:11:93:03:1e:30	 -46
1295795061.676311 	 00:11:93:03:1e:30	 -46
1295795061.947181 	 00:11:93:03:1e:30	 -46
1295795062.242660 	 00:11:93:03:1e:30	 -45
1295795062.513992 	 00:11:93:03:1e:30	 -45
1295795062.787937 	 00:11:93:03:1e:30	 -47
1295795063.056921 	 00:11:93:03:1e:30	 -47
1295795063.327833 	 00:11:93:03:1e:30	 -44
1295795063.596651 	 00:11:93:03:1e:30	 -44
1295795063.867617 	 00:11:93:03:1e:30	 -44
1295795064.136799 	 00:11:93:03:1e:30	 -44
1295795064.408001 	 00:11:93:03:1e:30	 -45
1295795064.676864 	 00:11:93:03:1e:30	 -45
1295795064.946765 	 00:11:93:03:1e:30	 -47
1295795065.226289 	 00:11:93:03:1e:30	 -47
1295795065.500039 	 00:11:93:03:1e:30	 -44
1295795065.769109 	 00:11:93:03:1e:30	 -44
1295795066.044273 	 00:11:93:03:1e:30	 -44
1295795066.313751 	 00:11:93:03:1e:30	 -44
1295795066.588305 	 00:11:93:03:1e:30	 -45
1295795066.857583 	 00:11:93:03:1e:30	 -45
1295795067.132180 	 00:11:93:03:1e:30	 -46
1295795067.401422 	 00:11:93:03:1e:30	 -46
1295795067.676338 	 00:11:93:03:1e:30	 -46
1295795067.945767 	 00:11:93:03:1e:30	 -46
1295795068.228247 	 00:11:93:03:1e:30	 -69
1295795068.497652 	 00:11:93:03:1e:30	 -69
1295795068.772283 	 00:11:93:03:1e:30	 -47
1295795069.041794 	 00:11:93:03:1e:30	 -47
1295795069.316450 	 00:11:93:03:1e:30	 -44
1295795069.585852 	 00:11:93:03:1e:30	 -44
1295795069.860477 	 00:11:93:03:1e:30	 -44
1295795070.129970 	 00:11:93:03:1e:30	 -44
1295795070.404344 	 00:11:93:03:1e:30	 -48
1295795070.673673 	 00:11:93:03:1e:30	 -48
1295795070.948490 	 00:11:93:03:1e:30	 -48
1295795071.220311 	 00:11:93:03:1e:30	 -48
1295795071.491840 	 00:11:93:03:1e:30	 -46
1295795071.761341 	 00:11:93:03:1e:30	 -46
1295795072.036324 	 00:11:93:03:1e:30	 -46
1295795072.309634 	 00:11:93:03:1e:30	 -46
1295795072.584566 	 00:11:93:03:1e:30	 -46
1295795072.854627 	 00:11:93:03:1e:30	 -46
1295795073.133165 	 00:11:93:03:1e:30	 -44
1295795073.412867 	 00:11:93:03:1e:30	 -44
1295795073.688933 	 00:11:93:03:1e:30	 -47
1295795073.964888 	 00:11:93:03:1e:30	 -47
1295795074.247542 	 00:11:93:03:1e:30	 -44
1295795074.529497 	 00:11:93:03:1e:30	 -44
1295795074.817641 	 00:11:93:03:1e:30	 -44
1295795075.105869 	 00:11:93:03:1e:30	 -46
1295795075.393835 	 00:11:93:03:1e:30	 -46
1295795075.681635 	 00:11:93:03:1e:30	 -45
1295795075.969903 	 00:11:93:03:1e:30	 -45
1295795076.267176 	 00:11:93:03:1e:30	 -46
1295795076.561675 	 00:11:93:03:1e:30	 -51
1295795076.848679 	 00:11:93:03:1e:30	 -44
1295795077.134215 	 00:11:93:03:1e:30	 -44
1295795077.422256 	 00:11:93:03:1e:30	 -44
1295795077.710111 	 00:11:93:03:1e:30	 -44
1295795077.998237 	 00:11:93:03:1e:30	 -45
1295795078.287044 	 00:11:93:03:1e:30	 -45
1295795078.575467 	 00:11:93:03:1e:30	 -46
1295795078.864335 	 00:11:93:03:1e:30	 -46
1295795079.144880 	 00:11:93:03:1e:30	 -46
1295795079.424863 	 00:11:93:03:1e:30	 -46
1295795079.708131 	 00:11:93:03:1e:30	 -44
1295795079.987132 	 00:11:93:03:1e:30	 -44
1295795080.281259 	 00:11:93:03:1e:30	 -44
1295795080.568210 	 00:11:93:03:1e:30	 -44
1295795080.869525 	 00:11:93:03:1e:30	 -44
1295795081.156453 	 00:11:93:03:1e:30	 -44
1295795081.436792 	 00:11:93:03:1e:30	 -44
1295795081.722292 	 00:11:93:03:1e:30	 -44
1295795082.004624 	 00:11:93:03:1e:30	 -44
1295795082.281464 	 00:11:93:03:1e:30	 -44
1295795082.564402 	 00:11:93:03:1e:30	 -45
1295795082.843456 	 00:11:93:03:1e:30	 -45
1295795083.136981 	 00:11:93:03:1e:30	 -45
1295795083.418576 	 00:11:93:03:1e:30	 -45
1295795083.697560 	 00:11:93:03:1e:30	 -46
1295795083.978657 	 00:11:93:03:1e:30	 -46
1295795084.266262 	 00:11:93:03:1e:30	 -49
1295795084.546984 	 00:11:93:03:1e:30	 -49
1295795084.841329 	 00:11:93:03:1e:30	 -47
1295795085.122880 	 00:11:93:03:1e:30	 -47
1295795085.408449 	 00:11:93:03:1e:30	 -51
1295795085.687678 	 00:11:93:03:1e:30	 -51
1295795085.966288 	 00:11:93:03:1e:30	 -46
1295795025.605426 	 00:11:93:03:1e:30	 -49
1295795025.856779 	 00:11:93:03:1e:30	 -49
1295795026.108169 	 00:11:93:03:1e:30	 -48
1295795026.359471 	 00:11:93:03:1e:30	 -48
1295795026.613030 	 00:11:93:03:1e:30	 -50
1295795026.864688 	 00:11:93:03:1e:30	 -50
1295795027.118393 	 00:11:93:03:1e:30	 -47
1295795027.370017 	 00:11:93:03:1e:30	 -47
1295795027.623681 	 00:11:93:03:1e:30	 -44
1295795027.875512 	 00:11:93:03:1e:30	 -44
1295795028.129588 	 00:11:93:03:1e:30	 -45
1295795028.381467 	 00:11:93:03:1e:30	 -45
1295795028.635501 	 00:11:93:03:1e:30	 -43
1295795028.887391 	 00:11:93:03:1e:30	 -43
1295795029.139507 	 00:11:93:03:1e:30	 -46
1295795029.391568 	 00:11:93:03:1e:30	 -46
1295795029.645812 	 00:11:93:03:1e:30	 -46
1295795029.898082 	 00:11:93:03:1e:30	 -46
1295795030.152529 	 00:11:93:03:1e:30	 -45
1295795030.404989 	 00:11:93:03:1e:30	 -45
1295795030.659483 	 00:11:93:03:1e:30	 -46
1295795030.911794 	 00:11:93:03:1e:30	 -46
1295795031.166265 	 00:11:93:03:1e:30	 -46
1295795031.418792 	 00:11:93:03:1e:30	 -46
1295795031.671170 	 00:11:93:03:1e:30	 -49
1295795031.923659 	 00:11:93:03:1e:30	 -49
1295795032.178304 	 00:11:93:03:1e:30	 -47
1295795032.430990 	 00:11:93:03:1e:30	 -47
1295795032.685910 	 00:11:93:03:1e:30	 -44
1295795032.938545 	 00:11:93:03:1e:30	 -44
1295795033.193508 	 00:11:93:03:1e:30	 -49
1295795033.446378 	 00:11:93:03:1e:30	 -49
1295795033.701460 	 00:11:93:03:1e:30	 -49
1295795033.954416 	 00:11:93:03:1e:30	 -49
1295795034.209570 	 00:11:93:03:1e:30	 -46
1295795034.462437 	 00:11:93:03:1e:30	 -46
1295795034.715457 	 00:11:93:03:1e:30	 -46
1295795034.968547 	 00:11:93:03:1e:30	 -46
1295795035.223786 	 00:11:93:03:1e:30	 -44
1295795035.476911 	 00:11:93:03:1e:30	 -44
1295795035.732206 	 00:11:93:03:1e:30	 -44
1295795035.985423 	 00:11:93:03:1e:30	 -44
1295795036.240734 	 00:11:93:03:1e:30	 -46
1295795036.493984 	 00:11:93:03:1e:30	 -46
1295795036.749487 	 00:11:93:03:1e:30	 -44
1295795037.005954 	 00:11:93:03:1e:30	 -44
1295795037.265236 	 00:11:93:03:1e:30	 -43
1295795037.518604 	 00:11:93:03:1e:30	 -43
1295795037.774156 	 00:11:93:03:1e:30	 -44
1295795038.027688 	 00:11:93:03:1e:30	 -44
1295795038.283410 	 00:11:93:03:1e:30	 -47
1295795038.537240 	 00:11:93:03:1e:30	 -47
1295795038.793133 	 00:11:93:03:1e:30	 -44
1295795039.047002 	 00:11:93:03:1e:30	 -44
1295795039.302770 	 00:11:93:03:1e:30	 -47
1295795039.556575 	 00:11:93:03:1e:30	 -47
1295795039.812565 	 00:11:93:03:1e:30	 -47
1295795040.066319 	 00:11:93:03:1e:30	 -47
1295795040.323390 	 00:11:93:03:1e:30	 -45
1295795040.577386 	 00:11:93:03:1e:30	 -45
1295795040.835587 	 00:11:93:03:1e:30	 -44
1295795041.089738 	 00:11:93:03:1e:30	 -44
1295795041.347714 	 00:11:93:03:1e:30	 -47
1295795041.601841 	 00:11:93:03:1e:30	 -47
1295795041.859566 	 00:11:93:03:1e:30	 -47
1295795042.113966 	 00:11:93:03:1e:30	 -47
1295795042.371838 	 00:11:93:03:1e:30	 -46
1295795042.626153 	 00:11:93:03:1e:30	 -46
1295795042.884001 	 00:11:93:03:1e:30	 -46
1295795043.140994 	 00:11:93:03:1e:30	 -46
1295795043.397499 	 00:11:93:03:1e:30	 -44
1295795043.654063 	 00:11:93:03:1e:30	 -44
1295795043.911933 	 00:11:93:03:1e:30	 -55
1295795044.168882 	 00:11:93:03:1e:30	 -55
1295795044.427853 	 00:11:93:03:1e:30	 -44
1295795044.684646 	 00:11:93:03:1e:30	 -44
1295795044.943646 	 00:11:93:03:1e:30	 -44
1295795045.200675 	 00:11:93:03:1e:30	 -44
1295795045.459671 	 00:11:93:03:1e:30	 -45
1295795045.716796 	 00:11:93:03:1e:30	 -45
1295795045.975945 	 00:11:93:03:1e:30	 -45
1295795046.233046 	 00:11:93:03:1e:30	 -45
1295795046.490186 	 00:11:93:03:1e:30	 -45
1295795046.746291 	 00:11:93:03:1e:30	 -45
1295795047.004148 	 00:11:93:03:1e:30	 -71
1295795047.261380 	 00:11:93:03:1e:30	 -71
1295795047.520297 	 00:11:93:03:1e:30	 -44
1295795047.777322 	 00:11:93:03:1e:30	 -44
1295795048.036523 	 00:11:93:03:1e:30	 -46
1295795048.293657 	 00:11:93:03:1e:30	 -46
1295795048.552561 	 00:11:93:03:1e:30	 -45
1295795048.809862 	 00:11:93:03:1e:30	 -45
1295795049.068324 	 00:11:93:03:1e:30	 -45
1295795049.325512 	 00:11:93:03:1e:30	 -45
1295795049.584646 	 00:11:93:03:1e:30	 -45
1295795049.840059 	 00:11:93:03:1e:30	 -45
1295795050.099478 	 00:11:93:03:1e:30	 -45
1295795050.378463 	 00:11:93:03:1e:30	 -45
1295795050.636709 	 00:11:93:03:1e:30	 -46
1295795050.894052 	 00:11:93:03:1e:30	 -46
1295795051.152737 	 00:11:93:03:1e:30	 -47
1295795051.410141 	 00:11:93:03:1e:30	 -47
1295795051.668637 	 00:11:93:03:1e:30	 -46
1295795051.926112 	 00:11:93:03:1e:30	 -46
1295795052.184829 	 00:11:93:03:1e:30	 -46
1295795052.442334 	 00:11:93:03:1e:30	 -46
1295795052.700715 	 00:11:93:03:1e:30	 -47
1295795052.958309 	 00:11:93:03:1e:30	 -47
1295795053.217528 	 00:11:93:03:1e:30	 -48
1295795053.474762 	 00:11:93:03:1e:30	 -48
1295795053.746326 	 00:11:93:03:1e:30	 -46
1295795054.005961 	 00:11:93:03:1e:30	 -46
1295795054.268190 	 00:11:93:03:1e:30	 -44
1295795054.526092 	 00:11:93:03:1e:30	 -44
1295795054.784971 	 00:11:93:03:1e:30	 -44
1295795055.041033 	 00:11:93:03:1e:30	 -44
1295795055.299353 	 00:11:93:03:1e:30	 -44
1295795055.578917 	 00:11:93:03:1e:30	 -44
1295795055.850917 	 00:11:93:03:1e:30	 -46
1295795056.132970 	 00:11:93:03:1e:30	 -46
1295795056.391537 	 00:11:93:03:1e:30	 -46
1295795056.671530 	 00:11:93:03:1e:30	 -46
1295795056.950240 	 00:11:93:03:1e:30	 -44
1295795057.231212 	 00:11:93:03:1e:30	 -44
1295795057.513450 	 00:11:93:03:1e:30	 -48
1295795057.795244 	 00:11:93:03:1e:30	 -48
1295795058.077626 	 00:11:93:03:1e:30	 -44
1295795058.359653 	 00:11:93:03:1e:30	 -44
1295795058.630591 	 00:11:93:03:1e:30	 -47
1295795058.911644 	 00:11:93:03:1e:30	 -47
1295795059.182440 	 00:11:93:03:1e:30	 -45
1295795059.463526 	 00:11:93:03:1e:30	 -45
1295795059.746188 	 00:11:93:03:1e:30	 -68
1295795060.027491 	 00:11:93:03:1e:30	 -68
1295795060.312474 	 00:11:93:03:1e:30	 -48
1295795060.581244 	 00:11:93:03:1e:30	 -48
1295795060.855755 	 00:11:93:03:1e:30	 -48
1295795061.124784 	 00:11:93:03:1e:30	 -48
1295795061.395706 	 00:11:93:03:1e:30	 -46
1295795061.676327 	 00:11:93:03:1e:30	 -46
1295795061.947198 	 00:11:93:03:1e:30	 -50
1295795062.242677 	 00:11:93:03:1e:30	 -44
1295795062.514009 	 00:11:93:03:1e:30	 -44
1295795062.787954 	 00:11:93:03:1e:30	 -48
1295795063.056929 	 00:11:93:03:1e:30	 -48
1295795063.327850 	 00:11:93:03:1e:30	 -45
1295795063.596667 	 00:11:93:03:1e:30	 -45
1295795063.867634 	 00:11:93:03:1e:30	 -45
1295795064.136816 	 00:11:93:03:1e:30	 -45
1295795064.408018 	 00:11:93:03:1e:30	 -44
1295795064.676882 	 00:11:93:03:1e:30	 -44
1295795064.946782 	 00:11:93:03:1e:30	 -67
1295795065.226306 	 00:11:93:03:1e:30	 -67
1295795065.500055 	 00:11:93:03:1e:30	 -44
1295795065.769125 	 00:11:93:03:1e:30	 -44
1295795066.044290 	 00:11:93:03:1e:30	 -45
1295795066.313768 	 00:11:93:03:1e:30	 -45
1295795066.588322 	 00:11:93:03:1e:30	 -45
1295795066.857599 	 00:11:93:03:1e:30	 -45
1295795067.132197 	 00:11:93:03:1e:30	 -46
1295795067.401438 	 00:11:93:03:1e:30	 -46
1295795067.676354 	 00:11:93:03:1e:30	 -46
1295795067.945783 	 00:11:93:03:1e:30	 -46
1295795068.228263 	 00:11:93:03:1e:30	 -71
1295795068.497669 	 00:11:93:03:1e:30	 -71
1295795068.772299 	 00:11:93:03:1e:30	 -47
1295795069.041811 	 00:11:93:03:1e:30	 -47
1295795069.316467 	 00:11:93:03:1e:30	 -44
1295795069.585868 	 00:11:93:03:1e:30	 -44
1295795069.860494 	 00:11:93:03:1e:30	 -45
1295795070.129987 	 00:11:93:03:1e:30	 -45
1295795070.404361 	 00:11:93:03:1e:30	 -46
1295795070.673690 	 00:11:93:03:1e:30	 -46
1295795070.948507 	 00:11:93:03:1e:30	 -47
1295795071.220327 	 00:11:93:03:1e:30	 -47
1295795071.491857 	 00:11:93:03:1e:30	 -47
1295795071.761358 	 00:11:93:03:1e:30	 -47
1295795072.036332 	 00:11:93:03:1e:30	 -47
1295795072.309651 	 00:11:93:03:1e:30	 -47
1295795072.584583 	 00:11:93:03:1e:30	 -45
1295795072.854644 	 00:11:93:03:1e:30	 -45
1295795073.133181 	 00:11:93:03:1e:30	 -44
1295795073.412883 	 00:11:93:03:1e:30	 -44
1295795073.688950 	 00:11:93:03:1e:30	 -47
1295795073.964905 	 00:11:93:03:1e:30	 -47
1295795074.247558 	 00:11:93:03:1e:30	 -45
1295795074.529514 	 00:11:93:03:1e:30	 -45
1295795074.817658 	 00:11:93:03:1e:30	 -45
1295795075.105886 	 00:11:93:03:1e:30	 -50
1295795075.393852 	 00:11:93:03:1e:30	 -50
1295795075.681651 	 00:11:93:03:1e:30	 -45
1295795075.969919 	 00:11:93:03:1e:30	 -45
1295795076.267193 	 00:11:93:03:1e:30	 -45
1295795076.561692 	 00:11:93:03:1e:30	 -46
1295795076.848695 	 00:11:93:03:1e:30	 -45
1295795077.134232 	 00:11:93:03:1e:30	 -45
1295795077.422273 	 00:11:93:03:1e:30	 -44
1295795077.710128 	 00:11:93:03:1e:30	 -44
1295795077.998254 	 00:11:93:03:1e:30	 -46
1295795078.287061 	 00:11:93:03:1e:30	 -46
1295795078.575483 	 00:11:93:03:1e:30	 -46
1295795078.864351 	 00:11:93:03:1e:30	 -46
1295795079.144897 	 00:11:93:03:1e:30	 -45
1295795079.424880 	 00:11:93:03:1e:30	 -45
1295795079.708148 	 00:11:93:03:1e:30	 -44
1295795079.987149 	 00:11:93:03:1e:30	 -44
1295795080.281276 	 00:11:93:03:1e:30	 -44
1295795080.568226 	 00:11:93:03:1e:30	 -44
1295795080.869541 	 00:11:93:03:1e:30	 -45
1295795081.156469 	 00:11:93:03:1e:30	 -45
1295795081.436809 	 00:11:93:03:1e:30	 -45
1295795081.722309 	 00:11:93:03:1e:30	 -45
1295795082.004640 	 00:11:93:03:1e:30	 -45
1295795082.281481 	 00:11:93:03:1e:30	 -45
1295795082.564419 	 00:11:93:03:1e:30	 -46
1295795082.843472 	 00:11:93:03:1e:30	 -46
1295795083.136998 	 00:11:93:03:1e:30	 -45
1295795083.418592 	 00:11:93:03:1e:30	 -45
1295795083.697577 	 00:11:93:03:1e:30	 -48
1295795083.978673 	 00:11:93:03:1e:30	 -48
1295795084.266278 	 00:11:93:03:1e:30	 -49
1295795084.547001 	 00:11:93:03:1e:30	 -49
1295795084.841345 	 00:11:93:03:1e:30	 -47
1295795085.122897 	 00:11:93:03:1e:30	 -47
1295795085.408465 	 00:11:93:03:1e:30	 -48
1295795085.687695 	 00:11:93:03:1e:30	 -48
1295795085.966304 	 00:11:93:03:1e:30	 -46
1295795026.108186 	 00:11:93:03:1e:30	 -49
1295795026.359488 	 00:11:93:03:1e:30	 -49
1295795026.613048 	 00:11:93:03:1e:30	 -49
1295795026.864705 	 00:11:93:03:1e:30	 -49
1295795027.118410 	 00:11:93:03:1e:30	 -49
1295795027.370034 	 00:11:93:03:1e:30	 -49
1295795027.623699 	 00:11:93:03:1e:30	 -49
1295795027.875529 	 00:11:93:03:1e:30	 -49
1295795028.129606 	 00:11:93:03:1e:30	 -49
1295795028.381483 	 00:11:93:03:1e:30	 -49
1295795028.635518 	 00:11:93:03:1e:30	 -49
1295795028.887408 	 00:11:93:03:1e:30	 -49
1295795029.139524 	 00:11:93:03:1e:30	 -49
1295795029.391585 	 00:11:93:03:1e:30	 -49
1295795029.645830 	 00:11:93:03:1e:30	 -49
1295795029.898099 	 00:11:93:03:1e:30	 -49
1295795030.152545 	 00:11:93:03:1e:30	 -49
1295795030.405006 	 00:11:93:03:1e:30	 -49
1295795030.659500 	 00:11:93:03:1e:30	 -49
1295795030.911811 	 00:11:93:03:1e:30	 -49
1295795031.166282 	 00:11:93:03:1e:30	 -49
1295795031.418809 	 00:11:93:03:1e:30	 -49
1295795031.671187 	 00:11:93:03:1e:30	 -49
1295795031.923676 	 00:11:93:03:1e:30	 -49
1295795032.178321 	 00:11:93:03:1e:30	 -47
1295795032.431007 	 00:11:93:03:1e:30	 -47
1295795032.685927 	 00:11:93:03:1e:30	 -44
1295795032.938562 	 00:11:93:03:1e:30	 -44
1295795033.193525 	 00:11:93:03:1e:30	 -46
1295795033.446395 	 00:11:93:03:1e:30	 -46
1295795033.701479 	 00:11:93:03:1e:30	 -47
1295795033.954433 	 00:11:93:03:1e:30	 -47
1295795034.209587 	 00:11:93:03:1e:30	 -47
1295795034.462454 	 00:11:93:03:1e:30	 -47
1295795034.715474 	 00:11:93:03:1e:30	 -47
1295795034.968564 	 00:11:93:03:1e:30	 -47
1295795035.223803 	 00:11:93:03:1e:30	 -47
1295795035.476928 	 00:11:93:03:1e:30	 -47
1295795035.732224 	 00:11:93:03:1e:30	 -47
1295795035.985440 	 00:11:93:03:1e:30	 -47
1295795036.240751 	 00:11:93:03:1e:30	 -47
1295795036.494000 	 00:11:93:03:1e:30	 -47
1295795036.749504 	 00:11:93:03:1e:30	 -47
1295795037.005971 	 00:11:93:03:1e:30	 -47
1295795037.265253 	 00:11:93:03:1e:30	 -47
1295795037.518621 	 00:11:93:03:1e:30	 -47
1295795037.774173 	 00:11:93:03:1e:30	 -47
1295795038.027705 	 00:11:93:03:1e:30	 -47
1295795038.283427 	 00:11:93:03:1e:30	 -47
1295795038.537257 	 00:11:93:03:1e:30	 -47
1295795038.793150 	 00:11:93:03:1e:30	 -47
1295795039.047019 	 00:11:93:03:1e:30	 -47
1295795039.302787 	 00:11:93:03:1e:30	 -47
1295795039.556592 	 00:11:93:03:1e:30	 -47
1295795039.812582 	 00:11:93:03:1e:30	 -47
1295795040.066330 	 00:11:93:03:1e:30	 -47
1295795040.323407 	 00:11:93:03:1e:30	 -47
1295795040.577403 	 00:11:93:03:1e:30	 -47
1295795040.835605 	 00:11:93:03:1e:30	 -47
1295795041.089756 	 00:11:93:03:1e:30	 -47
1295795041.347731 	 00:11:93:03:1e:30	 -47
1295795041.601859 	 00:11:93:03:1e:30	 -47
1295795041.859586 	 00:11:93:03:1e:30	 -47
1295795042.113984 	 00:11:93:03:1e:30	 -47
1295795042.371856 	 00:11:93:03:1e:30	 -47
1295795042.626170 	 00:11:93:03:1e:30	 -47
1295795042.884019 	 00:11:93:03:1e:30	 -47
1295795043.141012 	 00:11:93:03:1e:30	 -47
1295795043.397517 	 00:11:93:03:1e:30	 -47
1295795043.654080 	 00:11:93:03:1e:30	 -47
1295795043.911950 	 00:11:93:03:1e:30	 -47
1295795044.168900 	 00:11:93:03:1e:30	 -47
1295795044.427871 	 00:11:93:03:1e:30	 -47
1295795044.684663 	 00:11:93:03:1e:30	 -47
1295795044.943663 	 00:11:93:03:1e:30	 -47
1295795045.200692 	 00:11:93:03:1e:30	 -47
1295795045.459701 	 00:11:93:03:1e:30	 -47
1295795045.716813 	 00:11:93:03:1e:30	 -47
1295795045.975962 	 00:11:93:03:1e:30	 -47
1295795046.233064 	 00:11:93:03:1e:30	 -47
1295795046.490204 	 00:11:93:03:1e:30	 -47
1295795046.746309 	 00:11:93:03:1e:30	 -47
1295795047.004165 	 00:11:93:03:1e:30	 -47
1295795047.261398 	 00:11:93:03:1e:30	 -47
1295795047.520314 	 00:11:93:03:1e:30	 -47
1295795047.777340 	 00:11:93:03:1e:30	 -47
1295795048.036540 	 00:11:93:03:1e:30	 -47
1295795048.293675 	 00:11:93:03:1e:30	 -47
1295795048.552578 	 00:11:93:03:1e:30	 -45
1295795048.809879 	 00:11:93:03:1e:30	 -45
1295795049.068342 	 00:11:93:03:1e:30	 -45
1295795049.325530 	 00:11:93:03:1e:30	 -45
1295795049.584663 	 00:11:93:03:1e:30	 -45
1295795049.840076 	 00:11:93:03:1e:30	 -45
1295795050.099496 	 00:11:93:03:1e:30	 -46
1295795050.378480 	 00:11:93:03:1e:30	 -46
1295795050.636726 	 00:11:93:03:1e:30	 -46
1295795050.894069 	 00:11:93:03:1e:30	 -46
1295795051.152755 	 00:11:93:03:1e:30	 -46
1295795051.410159 	 00:11:93:03:1e:30	 -46
1295795051.668654 	 00:11:93:03:1e:30	 -46
1295795051.926130 	 00:11:93:03:1e:30	 -46
1295795052.184847 	 00:11:93:03:1e:30	 -46
1295795052.442351 	 00:11:93:03:1e:30	 -46
1295795052.700732 	 00:11:93:03:1e:30	 -46
1295795052.958326 	 00:11:93:03:1e:30	 -46
1295795053.217545 	 00:11:93:03:1e:30	 -46
1295795053.474779 	 00:11:93:03:1e:30	 -46
1295795053.746344 	 00:11:93:03:1e:30	 -46
1295795054.005979 	 00:11:93:03:1e:30	 -46
1295795054.268207 	 00:11:93:03:1e:30	 -46
1295795054.526110 	 00:11:93:03:1e:30	 -46
1295795054.784989 	 00:11:93:03:1e:30	 -46
1295795055.041050 	 00:11:93:03:1e:30	 -46
1295795055.299371 	 00:11:93:03:1e:30	 -46
1295795055.578934 	 00:11:93:03:1e:30	 -46
1295795055.850934 	 00:11:93:03:1e:30	 -46
1295795056.132988 	 00:11:93:03:1e:30	 -46
1295795056.391555 	 00:11:93:03:1e:30	 -46
1295795056.671548 	 00:11:93:03:1e:30	 -46
1295795056.950258 	 00:11:93:03:1e:30	 -44
1295795057.231229 	 00:11:93:03:1e:30	 -44
1295795057.513467 	 00:11:93:03:1e:30	 -44
1295795057.795261 	 00:11:93:03:1e:30	 -44
1295795058.077644 	 00:11:93:03:1e:30	 -45
1295795058.359670 	 00:11:93:03:1e:30	 -45
1295795058.630622 	 00:11:93:03:1e:30	 -45
1295795058.911661 	 00:11:93:03:1e:30	 -45
1295795059.182458 	 00:11:93:03:1e:30	 -45
1295795059.463543 	 00:11:93:03:1e:30	 -45
1295795059.746205 	 00:11:93:03:1e:30	 -45
1295795060.027508 	 00:11:93:03:1e:30	 -45
1295795060.312491 	 00:11:93:03:1e:30	 -45
1295795060.581262 	 00:11:93:03:1e:30	 -45
1295795060.855773 	 00:11:93:03:1e:30	 -45
1295795061.124802 	 00:11:93:03:1e:30	 -45
1295795061.395724 	 00:11:93:03:1e:30	 -45
1295795061.676345 	 00:11:93:03:1e:30	 -45
1295795061.947215 	 00:11:93:03:1e:30	 -45
1295795062.242694 	 00:11:93:03:1e:30	 -45
1295795062.514027 	 00:11:93:03:1e:30	 -45
1295795062.787998 	 00:11:93:03:1e:30	 -47
1295795063.056938 	 00:11:93:03:1e:30	 -47
1295795063.327868 	 00:11:93:03:1e:30	 -47
1295795063.596685 	 00:11:93:03:1e:30	 -47
1295795063.867651 	 00:11:93:03:1e:30	 -47
1295795064.136834 	 00:11:93:03:1e:30	 -47
1295795064.408036 	 00:11:93:03:1e:30	 -47
1295795064.676900 	 00:11:93:03:1e:30	 -47
1295795064.946799 	 00:11:93:03:1e:30	 -46
1295795065.226324 	 00:11:93:03:1e:30	 -46
1295795065.500073 	 00:11:93:03:1e:30	 -46
1295795065.769143 	 00:11:93:03:1e:30	 -46
1295795066.044307 	 00:11:93:03:1e:30	 -46
1295795066.313785 	 00:11:93:03:1e:30	 -46
1295795066.588339 	 00:11:93:03:1e:30	 -45
1295795066.857629 	 00:11:93:03:1e:30	 -45
1295795067.132214 	 00:11:93:03:1e:30	 -45
1295795067.401456 	 00:11:93:03:1e:30	 -45
1295795067.676372 	 00:11:93:03:1e:30	 -45
1295795067.945801 	 00:11:93:03:1e:30	 -45
1295795068.228281 	 00:11:93:03:1e:30	 -45
1295795068.497686 	 00:11:93:03:1e:30	 -45
1295795068.772317 	 00:11:93:03:1e:30	 -45
1295795069.041828 	 00:11:93:03:1e:30	 -45
1295795069.316484 	 00:11:93:03:1e:30	 -45
1295795069.585885 	 00:11:93:03:1e:30	 -45
1295795069.860511 	 00:11:93:03:1e:30	 -44
1295795070.130004 	 00:11:93:03:1e:30	 -44
1295795070.404378 	 00:11:93:03:1e:30	 -44
1295795070.673729 	 00:11:93:03:1e:30	 -44
1295795070.948524 	 00:11:93:03:1e:30	 -44
1295795071.220345 	 00:11:93:03:1e:30	 -44
1295795071.491874 	 00:11:93:03:1e:30	 -50
1295795071.761375 	 00:11:93:03:1e:30	 -50
1295795072.036341 	 00:11:93:03:1e:30	 -50
1295795072.309668 	 00:11:93:03:1e:30	 -50
1295795072.584600 	 00:11:93:03:1e:30	 -50
1295795072.854661 	 00:11:93:03:1e:30	 -50
1295795073.133199 	 00:11:93:03:1e:30	 -45
1295795073.412901 	 00:11:93:03:1e:30	 -45
1295795073.688967 	 00:11:93:03:1e:30	 -45
1295795073.964922 	 00:11:93:03:1e:30	 -45
1295795074.247575 	 00:11:93:03:1e:30	 -45
1295795074.529532 	 00:11:93:03:1e:30	 -45
1295795074.817675 	 00:11:93:03:1e:30	 -45
1295795075.105903 	 00:11:93:03:1e:30	 -45
1295795075.393869 	 00:11:93:03:1e:30	 -45
1295795075.681669 	 00:11:93:03:1e:30	 -45
1295795075.969936 	 00:11:93:03:1e:30	 -45
1295795076.267210 	 00:11:93:03:1e:30	 -45
1295795076.561746 	 00:11:93:03:1e:30	 -45
1295795076.848713 	 00:11:93:03:1e:30	 -45
1295795077.134250 	 00:11:93:03:1e:30	 -45
1295795077.422290 	 00:11:93:03:1e:30	 -45
1295795077.710146 	 00:11:93:03:1e:30	 -45
1295795077.998272 	 00:11:93:03:1e:30	 -45
1295795078.287079 	 00:11:93:03:1e:30	 -45
1295795078.575501 	 00:11:93:03:1e:30	 -45
1295795078.864369 	 00:11:93:03:1e:30	 -45
1295795079.144914 	 00:11:93:03:1e:30	 -45
1295795079.424897 	 00:11:93:03:1e:30	 -45
1295795079.708166 	 00:11:93:03:1e:30	 -45
1295795079.987166 	 00:11:93:03:1e:30	 -45
1295795080.281294 	 00:11:93:03:1e:30	 -45
1295795080.568244 	 00:11:93:03:1e:30	 -45
1295795080.869559 	 00:11:93:03:1e:30	 -45
1295795081.156487 	 00:11:93:03:1e:30	 -45
1295795081.436826 	 00:11:93:03:1e:30	 -45
1295795081.722327 	 00:11:93:03:1e:30	 -45
1295795082.004658 	 00:11:93:03:1e:30	 -45
1295795082.281498 	 00:11:93:03:1e:30	 -45
1295795082.564437 	 00:11:93:03:1e:30	 -45
1295795082.843490 	 00:11:93:03:1e:30	 -45
1295795083.137015 	 00:11:93:03:1e:30	 -45
1295795083.418610 	 00:11:93:03:1e:30	 -45
1295795083.697595 	 00:11:93:03:1e:30	 -45
1295795083.978691 	 00:11:93:03:1e:30	 -45
1295795084.266296 	 00:11:93:03:1e:30	 -45
1295795084.547019 	 00:11:93:03:1e:30	 -45
1295795084.841363 	 00:11:93:03:1e:30	 -45
1295795085.122914 	 00:11:93:03:1e:30	 -45
1295795085.408483 	 00:11:93:03:1e:30	 -45
1295795085.687712 	 00:11:93:03:1e:30	 -45
1295795085.966322 	 00:11:93:03:1e:30	 -45